<svg aria-hidden="true" style="position: absolute; width: 0; height: 0; overflow: hidden;" version="1.1" xmlns="http://www.w3.org/2000/svg" xmlns:xlink="http://www.w3.org/1999/xlink">
<defs>
<symbol id="icon-eye" viewBox="0 0 32 32">
<path d="M30.28 15.053c0.252 0.25 0.394 0.591 0.394 0.947s-0.142 0.696-0.394 0.947c-4.68 4.68-9.493 7.053-14.28 7.053s-9.6-2.373-14.28-7.053c-0.252-0.25-0.394-0.591-0.394-0.947s0.142-0.696 0.394-0.947c9.333-9.333 19.187-9.333 28.56 0zM4.587 16c7.68 7.080 15.147 7.080 22.827 0-7.68-7.080-15.147-7.080-22.827 0zM16 12c2.209 0 4 1.791 4 4 0 1.061-0.421 2.078-1.172 2.828s-1.768 1.172-2.828 1.172c-2.209 0-4-1.791-4-4s1.791-4 4-4zM16 14.667c-0.736 0-1.333 0.597-1.333 1.333s0.597 1.333 1.333 1.333c0.736 0 1.333-0.597 1.333-1.333s-0.597-1.333-1.333-1.333z"></path>
</symbol>
<symbol id="icon-eye-2" viewBox="0 0 32 32">
<path d="M23.053 7.053c0.338-0.338 0.831-0.47 1.293-0.346s0.823 0.485 0.947 0.947c0.124 0.462-0.008 0.955-0.346 1.293v0l-16 16c-0.25 0.252-0.591 0.394-0.947 0.394s-0.696-0.142-0.947-0.394c-0.252-0.25-0.394-0.591-0.394-0.947s0.142-0.696 0.394-0.947v0l1.17-1.169c-2.41-1.293-4.605-2.958-6.503-4.937-0.252-0.25-0.394-0.591-0.394-0.947s0.142-0.696 0.394-0.947c6.388-6.388 12.911-8.467 19.452-6.119zM26.52 11.84c1.341 0.964 2.598 2.039 3.76 3.213 0.252 0.25 0.394 0.591 0.394 0.947s-0.142 0.696-0.394 0.947c-4.68 4.68-9.493 7.053-14.28 7.053-0.736 0-1.333-0.597-1.333-1.333s0.597-1.333 1.333-1.333c3.733 0 7.573-1.787 11.413-5.333-0.772-0.715-1.587-1.383-2.44-2-0.434-0.257-0.685-0.736-0.651-1.239s0.35-0.943 0.815-1.138c0.465-0.195 1-0.111 1.383 0.217zM4.587 16c1.658 1.588 3.554 2.904 5.618 3.902l2.184-2.185c-0.253-0.531-0.388-1.117-0.389-1.717 0-2.209 1.791-4 4-4 0.6 0.001 1.186 0.136 1.718 0.389l1.323-1.325c-4.824-1.236-9.587 0.445-14.454 4.936z"></path>
</symbol>
<symbol id="icon-lock2" viewBox="0 0 29 32">
<title>lock2</title>
<path d="M25.6 27.2c0 0.884-0.716 1.6-1.6 1.6v0h-19.2c-0.884 0-1.6-0.716-1.6-1.6v0-11.2c0-0.884 0.716-1.6 1.6-1.6v0h19.2c0.884 0 1.6 0.716 1.6 1.6v0zM9.6 8c0-2.651 2.149-4.8 4.8-4.8s4.8 2.149 4.8 4.8v0 3.2h-9.6zM22.4 11.2v-3.2c0-4.418-3.582-8-8-8s-8 3.582-8 8v0 3.2h-1.6c-2.651 0-4.8 2.149-4.8 4.8v0 11.2c0 2.651 2.149 4.8 4.8 4.8v0h19.2c2.651 0 4.8-2.149 4.8-4.8v0-11.2c0-2.651-2.149-4.8-4.8-4.8v0z"></path>
</symbol>
<symbol id="icon-ek--mobile--menu" viewBox="0 0 37 32">
<title>ek--mobile--menu</title>
<path d="M2.286 4.571h32c1.262 0 2.286-1.023 2.286-2.286s-1.023-2.286-2.286-2.286v0h-32c-1.262 0-2.286 1.023-2.286 2.286s1.023 2.286 2.286 2.286v0z"></path>
<path d="M34.286 13.714h-32c-1.262 0-2.286 1.023-2.286 2.286s1.023 2.286 2.286 2.286v0h32c1.262 0 2.286-1.023 2.286-2.286s-1.023-2.286-2.286-2.286v0z"></path>
<path d="M18.286 27.429h-16c-1.262 0-2.286 1.023-2.286 2.286s1.023 2.286 2.286 2.286v0h16c1.262 0 2.286-1.023 2.286-2.286s-1.023-2.286-2.286-2.286v0z"></path>
</symbol>
<symbol id="icon-ek--time" viewBox="0 0 27 32">
<title>ek--time</title>
<path d="M26.947 18.476c0 7.476-6.028 13.524-13.474 13.524-7.448 0-13.474-6.050-13.474-13.524 0-7.107 5.425-12.845 12.231-13.467v-2.513h-1.203c-0.688-0.001-1.245-0.559-1.245-1.246v0c0-0.691 0.556-1.25 1.245-1.25h4.891c0.688 0.001 1.245 0.559 1.245 1.246 0 0.001 0 0.001 0 0.002v-0c0 0 0 0.001 0 0.002 0 0.688-0.557 1.245-1.245 1.246h-1.203v2.513c2.833 0.263 5.366 1.376 7.385 3.078l-0.020-0.016 1.758 1.765c1.933 2.313 3.107 5.319 3.107 8.599 0 0.014-0 0.029-0 0.043v-0.002zM11.896 20.8h0.928l5.324 5.371 2.243-2.262-5.307-5.356v-8.953h-3.188v9.302l-0.477 0.482 0.477 0.48z"></path>
</symbol>
<symbol id="icon-ek--clock" viewBox="0 0 32 32">
<title>ek--clock</title>
<path d="M2.909 16c0-7.23 5.861-13.091 13.091-13.091s13.091 5.861 13.091 13.091v0c-0.008 7.227-5.864 13.083-13.090 13.091h-0.001c-7.23 0-13.091-5.861-13.091-13.091v0zM16 0c-8.836 0-16 7.164-16 16s7.164 16 16 16 16-7.164 16-16c-0.010-8.832-7.168-15.99-16-16z"></path>
<path d="M24.727 14.545h-7.273v-4.364c0-0.803-0.651-1.455-1.455-1.455s-1.455 0.651-1.455 1.455v0 5.818c0 0.803 0.651 1.455 1.455 1.455v0h8.727c0.803 0 1.455-0.651 1.455-1.455s-0.651-1.455-1.455-1.455v0z"></path>
</symbol>
<symbol id="icon-ek--close--icon" viewBox="0 0 32 32">
<title>ek--close--icon</title>
<path d="M1.893 5.883c-0.484-0.483-0.783-1.15-0.783-1.888s0.299-1.405 0.783-1.888l0-0 0.232-0.224c0.483-0.483 1.15-0.782 1.887-0.782s1.404 0.299 1.887 0.782l10.101 10.104 10.107-10.107c0.483-0.482 1.149-0.781 1.885-0.781s1.403 0.298 1.885 0.781v0l0.227 0.229c0.483 0.483 0.782 1.15 0.782 1.887s-0.299 1.404-0.782 1.887l-10.104 10.104 10.107 10.107c0.482 0.483 0.781 1.149 0.781 1.885s-0.298 1.403-0.781 1.885v0l-0.229 0.227c-0.483 0.483-1.15 0.782-1.887 0.782s-1.404-0.299-1.887-0.782l-10.104-10.104-10.107 10.107c-0.483 0.482-1.149 0.781-1.885 0.781s-1.403-0.298-1.885-0.781v0l-0.227-0.229c-0.483-0.483-0.782-1.15-0.782-1.887s0.299-1.404 0.782-1.887l10.104-10.104z"></path>
</symbol>
<symbol id="icon-ek--player--country" viewBox="0 0 32 32">
<title>ek--player--country</title>
<path d="M12.38 27.952c1.132-1.414 3.010-3.286 3.482-5.040 0.592-2.2 0.208-5.204-1.144-6.766-1.354-1.56-4.318-0.886-5.098-1.146-0.598-0.2-1.284-0.736-1.502-1.256 0.208-0.056 0.42-0.114 0.646-0.192 4.568-1.53 5.864-7.1 5.92-8.060 0.038-0.632-0.264-1.38-0.478-1.82 0.588-0.086 1.182-0.144 1.794-0.144 1.5 0 2.936 0.28 4.27 0.77l-0.934 1.078c-0.157 0.18-0.252 0.417-0.252 0.676 0 0.389 0.215 0.728 0.533 0.903l0.005 0.003c0.32 0.174 0.666 0.292 0.972 0.234 0.54-0.1 1.914-0.756 2.81-1.202 0.3 0.22 0.588 0.454 0.864 0.7-0.804 0.254-2.296 0.854-3.016 1.452-0.14 0.118-0.228 0.294-0.228 0.49 0 0.141 0.046 0.272 0.123 0.378l-0.001-0.002c0.24 0.338 0.476 0.814 0.020 0.944-0.728 0.208-0.206 1.666 0.99 1.77 1.020 0.088 3.092-1.93 4.746-1.76 0.62 1.116 1.076 2.334 1.33 3.626-1.434-0.512-3.958-1.22-5.66-0.618-2.496 0.886-4.288 3.072-2.236 5.362 2.050 2.29 3.484 0.624 3.9 3.124 0.080 0.472-0.182 2.62-0.402 4.254-2.116 1.733-4.849 2.783-7.828 2.783-1.293 0-2.54-0.198-3.712-0.565l0.088 0.024zM3.53 16c0-1.066 0.148-2.096 0.4-3.084 0.21 0.332 0.59 0.726 1.274 0.94 0.46 1.618 2.44 2.972 2.44 2.972s-1.402 2.272-0.78 3.676c0.626 1.406 2.446 1.718 2.55 2.446 0.058 0.4-0.26 1.942-0.56 3.254-3.235-2.279-5.323-5.997-5.328-10.203v-0.001zM16 0c-8.822 0-16 7.178-16 16s7.178 16 16 16 16-7.178 16-16-7.178-16-16-16z"></path>
</symbol>
<symbol id="icon-ek--location" viewBox="0 0 24 32">
<title>ek--location</title>
<path d="M12 18c-3.32 0-6-2.68-6-6s2.68-6 6-6 6 2.68 6 6-2.68 6-6 6zM12 0c-6.62 0-12 5.38-12 12 0 5.14 7.234 15.418 10.47 19.282 0.368 0.439 0.917 0.716 1.531 0.716s1.163-0.277 1.528-0.713l0.003-0.003c3.234-3.864 10.468-14.142 10.468-19.282 0-6.62-5.38-12-12-12z"></path>
</symbol>
<symbol id="icon-arrow_up" viewBox="0 0 32 32">
<title>arrow_up</title>
<path d="M14.667 11.219l-4.391 4.391c-0.521 0.521-1.365 0.521-1.886 0s-0.521-1.365 0-1.886l6.667-6.667c0.521-0.521 1.365-0.521 1.886 0l6.667 6.667c0.521 0.521 0.521 1.365 0 1.886s-1.365 0.521-1.886 0l-4.391-4.391v11.448c0 0.736-0.597 1.333-1.333 1.333s-1.333-0.597-1.333-1.333v-11.448z"></path>
</symbol>
<symbol id="icon-arrow_right" viewBox="0 0 32 32">
<title>arrow_right</title>
<path d="M20.781 14.667l-4.391-4.391c-0.521-0.521-0.521-1.365 0-1.886s1.365-0.521 1.886 0l6.667 6.667c0.521 0.521 0.521 1.365 0 1.886l-6.667 6.667c-0.521 0.521-1.365 0.521-1.886 0s-0.521-1.365 0-1.886l4.391-4.391h-11.448c-0.736 0-1.333-0.597-1.333-1.333s0.597-1.333 1.333-1.333h11.448z"></path>
</symbol>
<symbol id="icon-arrow_left" viewBox="0 0 32 32">
<title>arrow_left</title>
<path d="M12.552 14.667l4.391-4.391c0.521-0.521 0.521-1.365 0-1.886s-1.365-0.521-1.886 0l-6.667 6.667c-0.521 0.521-0.521 1.365 0 1.886l6.667 6.667c0.521 0.521 1.365 0.521 1.886 0s0.521-1.365 0-1.886l-4.391-4.391h11.448c0.736 0 1.333-0.597 1.333-1.333s-0.597-1.333-1.333-1.333h-11.448z"></path>
</symbol>
<symbol id="icon-arrow_drop_up" viewBox="0 0 32 32">
<title>arrow_drop_up</title>
<path d="M18.079 11.614l5.397 6.715c0.923 1.148 0.74 2.826-0.408 3.749-0.474 0.381-1.063 0.588-1.671 0.588h-10.794c-1.473 0-2.667-1.194-2.667-2.667 0-0.608 0.207-1.197 0.588-1.671l5.397-6.715c0.923-1.148 2.601-1.331 3.749-0.408 0.152 0.123 0.286 0.256 0.404 0.403l0.004 0.005z"></path>
</symbol>
<symbol id="icon-arrow_drop_down" viewBox="0 0 32 32">
<title>arrow_drop_down</title>
<path d="M18.079 21.719l5.397-6.715c0.923-1.148 0.74-2.826-0.408-3.749-0.474-0.381-1.063-0.588-1.671-0.588h-10.794c-1.473 0-2.667 1.194-2.667 2.667 0 0.608 0.207 1.197 0.588 1.671l5.397 6.715c0.923 1.148 2.601 1.331 3.749 0.408 0.152-0.123 0.286-0.256 0.404-0.403l0.004-0.005z"></path>
</symbol>
<symbol id="icon-arrow_down" viewBox="0 0 32 32">
<title>arrow_down</title>
<path d="M17.333 20.781l4.391-4.391c0.521-0.521 1.365-0.521 1.886 0s0.521 1.365 0 1.886l-6.667 6.667c-0.521 0.521-1.365 0.521-1.886 0l-6.667-6.667c-0.521-0.521-0.521-1.365 0-1.886s1.365-0.521 1.886 0l4.391 4.391v-11.448c0-0.736 0.597-1.333 1.333-1.333s1.333 0.597 1.333 1.333v11.448z"></path>
</symbol>
<symbol id="icon-ek--plus" viewBox="0 0 32 32">
<title>ek--plus</title>
<path d="M12.8 2.667c0-1.473 1.194-2.667 2.667-2.667v0h1.067c1.473 0 2.667 1.194 2.667 2.667v0 10.133h10.133c1.473 0 2.667 1.194 2.667 2.667v0 1.067c0 1.473-1.194 2.667-2.667 2.667v0h-10.133v10.133c0 1.473-1.194 2.667-2.667 2.667v0h-1.067c-1.473 0-2.667-1.194-2.667-2.667v0-10.133h-10.133c-1.473 0-2.667-1.194-2.667-2.667v0-1.067c0-1.473 1.194-2.667 2.667-2.667v0h10.133z"></path>
</symbol>
<symbol id="icon-ek--reset" viewBox="0 0 30 32">
<title>ek--reset</title>
<path d="M29.176 17.882c0 7.793-6.325 14.118-14.118 14.118s-14.118-6.325-14.118-14.118c0-6.494 4.386-11.953 10.353-13.591 0.809-0.245 1.638-0.395 2.504-0.452v-1.958c0-1.544 1.769-2.428 3.012-1.506l5.026 3.765c0.998 0.753 0.998 2.259 0 3.012l-5.026 3.765c0 0.002 0 0.005 0 0.008 0 1.042-0.844 1.886-1.886 1.886s-1.886-0.844-1.886-1.886c0-0.618 0.297-1.166 0.756-1.51l0.005-0.004v-1.807c-0.866 0.113-1.713 0.32-2.504 0.64-3.859 1.506-6.588 5.252-6.588 9.638 0 5.704 4.649 10.353 10.353 10.353s10.353-4.649 10.353-10.353c0-0.527 0.207-0.979 0.546-1.336 0.341-0.339 0.812-0.549 1.331-0.549 1.042 0 1.886 0.844 1.888 1.885v0z"></path>
</symbol>
<symbol id="icon-ek--random" viewBox="0 0 32 32">
<title>ek--random</title>
<path fill="var(--color-2)" d="M21.907 25.882l-4.297-1.374c-0.319-0.103-0.546-0.397-0.546-0.745s0.227-0.642 0.54-0.743l0.006-0.002 4.297-1.374c0.241-0.078 0.427-0.264 0.504-0.5l0.002-0.006 1.374-4.297c0.103-0.319 0.397-0.546 0.745-0.546s0.642 0.227 0.743 0.54l0.002 0.006 1.374 4.297c0.078 0.241 0.264 0.427 0.5 0.504l0.006 0.002 4.297 1.374c0.319 0.103 0.546 0.397 0.546 0.745s-0.227 0.642-0.54 0.743l-0.006 0.002-4.297 1.374c-0.241 0.078-0.427 0.264-0.504 0.5l-0.002 0.006-1.374 4.297c-0.103 0.319-0.397 0.546-0.745 0.546s-0.642-0.227-0.743-0.54l-0.002-0.006-1.374-4.297c-0.077-0.242-0.264-0.428-0.5-0.504l-0.005-0.002z"></path>
<path fill="var(--color-2)" d="M3.46 6.848l-3.072-0.981c-0.227-0.076-0.387-0.286-0.387-0.533s0.16-0.458 0.383-0.532l0.004-0.001 3.072-0.981c0.172-0.057 0.306-0.19 0.362-0.359l0.001-0.004 0.977-3.070c0.073-0.229 0.284-0.392 0.533-0.392s0.46 0.163 0.532 0.388l0.001 0.004 0.981 3.072c0.055 0.171 0.19 0.305 0.363 0.363l3.066 0.975c0.229 0.073 0.392 0.284 0.392 0.533s-0.163 0.46-0.388 0.532l-0.004 0.001-3.068 0.981c-0.173 0.056-0.307 0.189-0.362 0.359l-0.001 0.004-0.981 3.068c-0.076 0.226-0.286 0.387-0.533 0.387s-0.458-0.16-0.532-0.383l-0.001-0.004-0.981-3.070c-0.055-0.171-0.187-0.304-0.354-0.359l-0.004-0.001z"></path>
<path fill="var(--color-1)" d="M2.114 29.269l-1.51-1.513c-0.386-0.386-0.625-0.919-0.625-1.508s0.239-1.122 0.625-1.508l24.137-24.137c0.386-0.386 0.919-0.625 1.508-0.625s1.122 0.239 1.508 0.625l1.508 1.508c0.386 0.386 0.625 0.919 0.625 1.508s-0.239 1.122-0.625 1.508l-24.134 24.141c-0.386 0.386-0.919 0.625-1.508 0.625s-1.122-0.239-1.508-0.625v0z"></path>
</symbol>
<symbol id="icon-ek--stadium" viewBox="0 0 43 32">
<title>ek--stadium</title>
<path d="M0 10.667h5.333v10.667h-5.333z"></path>
<path d="M20 10.853v10.293c-2.293-0.587-4-2.667-4-5.147s1.707-4.56 4-5.147z"></path>
<path d="M20 0v8.133c-3.787 0.613-6.667 3.893-6.667 7.867s2.88 7.253 6.667 7.867v8.133h-17.333c-1.467 0-2.667-1.2-2.667-2.667v-5.333h5.333c1.467 0 2.667-1.2 2.667-2.667v-10.667c0-1.467-1.2-2.667-2.667-2.667h-5.333v-5.333c0-1.467 1.2-2.667 2.667-2.667z"></path>
<path d="M22.667 21.147v-10.293c2.293 0.587 4 2.667 4 5.147s-1.707 4.56-4 5.147z"></path>
<path d="M37.333 10.667h5.333v10.667h-5.333z"></path>
<path d="M42.667 2.667v5.333h-5.333c-1.467 0-2.667 1.2-2.667 2.667v10.667c0 1.467 1.2 2.667 2.667 2.667h5.333v5.333c0 1.467-1.2 2.667-2.667 2.667h-17.333v-8.133c3.787-0.613 6.667-3.893 6.667-7.867s-2.88-7.253-6.667-7.867v-8.133h17.333c1.467 0 2.667 1.2 2.667 2.667z"></path>
</symbol>
<symbol id="icon-ek--energy" viewBox="0 0 24 32">
<title>ek--energy</title>
<path d="M0.704 32c-0.178-0.001-0.34-0.071-0.46-0.184l0 0c-0.151-0.147-0.245-0.352-0.245-0.58 0-0.148 0.040-0.287 0.109-0.406l-0.002 0.004 6.018-10.398-2.374 0.854c-0.065 0.023-0.14 0.037-0.218 0.037-0.211 0-0.399-0.098-0.521-0.251l-0.001-0.001c-0.112-0.137-0.18-0.314-0.18-0.507 0-0.115 0.024-0.225 0.068-0.324l-0.002 0.005 8.47-19.806c0.105-0.257 0.351-0.436 0.639-0.442h11.293c0.268 0 0.514 0.166 0.632 0.426 0.045 0.098 0.072 0.213 0.072 0.333 0 0.175-0.055 0.337-0.149 0.469l0.002-0.003-8.724 12.112 5.186-1.122c0.041-0.009 0.089-0.014 0.137-0.014 0.286 0 0.532 0.175 0.635 0.423l0.002 0.005c0.046 0.098 0.072 0.212 0.072 0.333 0 0.228-0.095 0.433-0.248 0.579l-0 0-19.76 18.28c-0.117 0.108-0.273 0.176-0.446 0.178h-0z"></path>
</symbol>
<symbol id="icon-ek--ball" viewBox="0 0 32 32">
<title>ek--ball</title>
<path d="M23.068 24.086l-1.934-2.29 2.358-6.604 3.074-1.506 3.366 3.676c-0.217 2.145-0.892 4.095-1.925 5.804l0.035-0.062zM19.566 29.522c-1.068 0.299-2.296 0.473-3.563 0.478h-0.003c-1.492 0-2.928-0.24-4.278-0.674l-1.258-3.916 2.006-2.41h7.068l1.97 2.332zM4.454 23.908c-1.283-1.845-2.139-4.077-2.379-6.49l-0.005-0.058 3.38-3.678 3.080 1.51 2.32 6.606-1.96 2.356zM10.904 2.974l4.114 2.216v3.9l-5.77 4.198-3.154-1.538-0.98-4.542c1.515-1.859 3.464-3.308 5.695-4.201l0.095-0.033zM17.016 5.198l4.106-2.212c2.319 0.937 4.259 2.394 5.745 4.233l0.021 0.027-0.978 4.524-3.132 1.538-5.762-4.206zM16 0c-8.822 0-16 7.178-16 16s7.178 16 16 16 16-7.178 16-16-7.178-16-16-16z"></path>
</symbol>
<symbol id="icon-ek--card" viewBox="0 0 22 32">
<title>ek--card</title>
<path d="M0 3.2c0-1.767 1.433-3.2 3.2-3.2v0h16c1.767 0 3.2 1.433 3.2 3.2v0 25.6c0 1.767-1.433 3.2-3.2 3.2v0h-16c-1.767 0-3.2-1.433-3.2-3.2v0z"></path>
</symbol>
<symbol id="icon-ek--medical" viewBox="0 0 32 32">
<title>ek--medical</title>
<path d="M11.636 13.091c0.803 0 1.455-0.651 1.455-1.455v0-7.273c0-0.803 0.651-1.455 1.455-1.455v0h2.909c0.803 0 1.455 0.651 1.455 1.455v0 7.273c0 0.803 0.651 1.455 1.455 1.455v0h7.273c0.803 0 1.455 0.651 1.455 1.455v0 2.909c0 0.803-0.651 1.455-1.455 1.455v0h-7.273c-0.803 0-1.455 0.651-1.455 1.455v0 7.273c0 0.803-0.651 1.455-1.455 1.455v0h-2.909c-0.803 0-1.455-0.651-1.455-1.455v0-7.273c0-0.803-0.651-1.455-1.455-1.455v0h-7.273c-0.803 0-1.455-0.651-1.455-1.455v0-2.909c0-0.803 0.651-1.455 1.455-1.455v0zM20.54 30.721c0.79-0.79 1.278-1.88 1.279-3.085v-5.818h5.818c2.41 0 4.364-1.954 4.364-4.364v0-2.909c0-2.41-1.954-4.364-4.364-4.364v0h-5.818v-5.818c0-2.41-1.954-4.364-4.364-4.364v0h-2.909c-2.41 0-4.364 1.954-4.364 4.364v0 5.818h-5.818c-2.41 0-4.364 1.954-4.364 4.364v0 2.909c0 2.41 1.954 4.364 4.364 4.364v0h5.818v5.818c0 2.41 1.954 4.364 4.364 4.364v0h2.909c1.205-0 2.296-0.489 3.085-1.279v0z"></path>
</symbol>
<symbol id="icon-full-icon" viewBox="0 0 32 32">
<title>full-icon</title>
<path d="M1.453 11.434c0.803 0 1.454-0.651 1.454-1.454v0-5.010l4.264 4.277c0.264 0.267 0.63 0.433 1.035 0.433 0.803 0 1.454-0.651 1.454-1.454 0-0.404-0.165-0.769-0.43-1.033l-0-0-4.258-4.267h4.994c0.803 0 1.454-0.651 1.454-1.454s-0.651-1.454-1.454-1.454v0h-5.6c-1.185 0.002-2.258 0.478-3.041 1.249l0.001-0.001c-0.008 0.008-0.022 0.011-0.030 0.021v0.010c-0.819 0.816-1.28 1.928-1.28 3.085v5.6c0 0.797 0.64 1.445 1.437 1.454z"></path>
<path d="M9.992 29.099h-5.035l4.288-4.28c0.246-0.26 0.397-0.611 0.397-0.998 0-0.402-0.163-0.766-0.427-1.029l-0-0c-0.264-0.263-0.628-0.426-1.030-0.426-0.388 0-0.74 0.151-1.001 0.398l0.001-0.001-4.272 4.266v-4.998c0-0.804-0.652-1.456-1.456-1.456s-1.456 0.652-1.456 1.456v0 5.614c0.002 1.136 0.448 2.229 1.248 3.040 0.008 0.010 0.011 0.024 0.022 0.035l0.021 0.013c0.787 0.786 1.874 1.272 3.075 1.272 0.001 0 0.003 0 0.004 0h5.622c0.020 0.001 0.044 0.002 0.068 0.002 0.804 0 1.456-0.652 1.456-1.456s-0.652-1.456-1.456-1.456c-0.024 0-0.048 0.001-0.072 0.002l0.003-0z"></path>
<path d="M30.734 1.291l-0.013-0.021c-0.011-0.010-0.024-0.013-0.037-0.024-0.782-0.77-1.855-1.245-3.040-1.246h-5.615c-0.803 0-1.454 0.651-1.454 1.454s0.651 1.454 1.454 1.454v0h4.998l-4.266 4.266c-0.281 0.266-0.456 0.641-0.456 1.057 0 0.803 0.651 1.454 1.454 1.454 0.416 0 0.791-0.175 1.057-0.455l0.001-0.001 4.28-4.28v5.019c0 0.803 0.651 1.454 1.454 1.454s1.454-0.651 1.454-1.454v-5.6c0-1.155-0.458-2.262-1.274-3.078z"></path>
<path d="M30.552 20.576c-0.803 0-1.454 0.651-1.454 1.454v5.013l-4.28-4.28c-0.266-0.281-0.641-0.456-1.057-0.456-0.803 0-1.454 0.651-1.454 1.454 0 0.416 0.175 0.791 0.455 1.057l0.001 0.001 4.28 4.28h-5.027c-0.803 0-1.454 0.651-1.454 1.454s0.651 1.454 1.454 1.454h5.629c2.408-0.004 4.36-1.955 4.363-4.363v-5.615c0-0.803-0.651-1.454-1.454-1.454v0z"></path>
</symbol>
<symbol id="icon-stadium" viewBox="0 0 43 32">
<title>stadium</title>
<path fill="var(--color-2)" d="M39.11 19.575h-1.777v-7.132h1.777zM23.11 28.422v-5.581c3.084-0.807 5.323-3.568 5.323-6.852s-2.239-6.046-5.274-6.841l-0.049-0.011v-5.581h14.223c0.981 0 1.775 0.796 1.777 1.775v3.554h-3.556c-0.981 0-1.776 0.794-1.777 1.775v10.658c0 0.981 0.796 1.775 1.777 1.775h3.556v3.554c0 0.981-0.796 1.773-1.777 1.775zM3.556 26.647v-3.554h3.556c0.981 0 1.777-0.794 1.777-1.775v-10.658c-0.001-0.981-0.796-1.775-1.777-1.775 0 0 0 0 0 0h-3.556v-3.554c0-0.981 0.796-1.773 1.777-1.775h14.223v5.581c-3.084 0.807-5.323 3.568-5.323 6.852s2.239 6.046 5.274 6.841l0.049 0.011v5.581h-14.223c-0.98-0.001-1.775-0.795-1.777-1.775v-0zM3.556 12.444h1.777v7.132h-1.777zM23.113 12.939c1.068 0.615 1.775 1.75 1.775 3.051s-0.707 2.435-1.758 3.042l-0.017 0.009zM19.556 19.061c-1.070-0.619-1.778-1.757-1.778-3.061s0.708-2.443 1.761-3.052l0.017-0.009zM37.333 0h-32c-2.946 0-5.333 2.388-5.333 5.333v0 21.333c0 2.946 2.388 5.333 5.333 5.333v0h32c2.946 0 5.333-2.388 5.333-5.333v0-21.333c0-2.946-2.388-5.333-5.333-5.333v0z"></path>
</symbol>
<symbol id="icon-ranking" viewBox="0 0 55 32">
<title>ranking</title>
<path fill="var(--color-2)" d="M13.92 22.857h-9.143c-1.262 0-2.286-1.023-2.286-2.286v-11.429c0-1.262 1.023-2.286 2.286-2.286h9.143c1.262 0 2.286 1.023 2.286 2.286v11.429c0 1.262-1.023 2.286-2.286 2.286zM7.063 18.286h4.571v-6.857h-4.571v6.857z"></path>
<path fill="var(--color-2)" d="M50.491 22.857h-9.143c-1.262 0-2.286-1.023-2.286-2.286v-9.143c0-1.262 1.023-2.286 2.286-2.286h9.143c1.262 0 2.286 1.023 2.286 2.286v9.143c0 1.262-1.023 2.286-2.286 2.286zM43.634 18.286h4.571v-4.571h-4.571v4.571z"></path>
<path fill="var(--color-2)" d="M32.206 22.857h-9.143c-1.262 0-2.286-1.023-2.286-2.286v-18.286c0-1.262 1.023-2.286 2.286-2.286h9.143c1.262 0 2.286 1.023 2.286 2.286v18.286c0 1.262-1.023 2.286-2.286 2.286zM25.349 18.286h4.571v-13.714h-4.571v13.714z"></path>
<path fill="var(--color-2)" d="M52.571 32h-50.286c-1.262 0-2.286-1.023-2.286-2.286s1.023-2.286 2.286-2.286h50.286c1.262 0 2.286 1.023 2.286 2.286s-1.023 2.286-2.286 2.286z"></path>
</symbol>
<symbol id="icon-promotion-active" viewBox="0 0 44 32">
<title>promotion-active</title>
<path fill="var(--color-2)" d="M42 12c1.105 0 2-0.895 2-2v-8c0-1.105-0.895-2-2-2h-40c-1.105 0-2 0.895-2 2v8c0 1.105 0.895 2 2 2 2.209 0 4 1.791 4 4s-1.791 4-4 4c-1.105 0-2 0.895-2 2v8c0 1.105 0.895 2 2 2h40c1.105 0 2-0.895 2-2v-8c0-1.105-0.895-2-2-2-2.209 0-4-1.791-4-4s1.791-4 4-4zM40 23.74v4.26h-10c0-1.105-0.895-2-2-2s-2 0.895-2 2h-22v-4.26c3.521-0.92 5.977-4.101 5.977-7.74s-2.456-6.82-5.977-7.74v-4.26h22c0 1.105 0.895 2 2 2s2-0.895 2-2h10v4.26c-3.521 0.92-5.977 4.101-5.977 7.74s2.456 6.82 5.977 7.74v0z"></path>
<path fill="var(--color-2)" d="M30 10c0 1.105-0.895 2-2 2s-2-0.895-2-2c0-1.105 0.895-2 2-2s2 0.895 2 2z"></path>
<path fill="var(--color-2)" d="M30 16c0 1.105-0.895 2-2 2s-2-0.895-2-2c0-1.105 0.895-2 2-2s2 0.895 2 2z"></path>
<path fill="var(--color-2)" d="M30 22c0 1.105-0.895 2-2 2s-2-0.895-2-2c0-1.105 0.895-2 2-2s2 0.895 2 2z"></path>
<path fill="var(--color-1)" d="M22 8v6c0 1.105-0.895 2-2 2s-2-0.895-2-2v-6c0-1.105 0.895-2 2-2s2 0.895 2 2z"></path>
<path fill="var(--color-1)" d="M16 8v2c0 1.105-0.895 2-2 2s-2-0.895-2-2v-2c0-1.105 0.895-2 2-2s2 0.895 2 2z"></path>
<path fill="var(--color-1)" d="M16 22v2c0 1.105-0.895 2-2 2s-2-0.895-2-2v-2c0-1.105 0.895-2 2-2s2 0.895 2 2z"></path>
</symbol>
<symbol id="icon-ek--promotion" viewBox="0 0 35 32">
<title>ek--promotion</title>
<path fill="var(--color-2)" d="M24 15.547v-5.504c0.945 0.568 1.567 1.587 1.567 2.752s-0.622 2.184-1.553 2.744l-0.014 0.008zM20.8 21.659l-12.8-4.912v-7.904l12.8-4.912zM8.448 28.795h-1.6l2.32-8.144 1.696 0.656zM3.2 13.803v-2.016c0.002-0.675 0.421-1.251 1.013-1.484l0.011-0.004 0.576-0.224v5.44l-0.576-0.224c-0.603-0.237-1.022-0.813-1.024-1.488v-0zM28.8 12.795c-0.010-2.958-2.024-5.442-4.755-6.166l-0.045-0.010v-5.024c-0.003-0.882-0.718-1.595-1.6-1.595-0.207 0-0.405 0.039-0.587 0.111l0.011-0.004-18.752 7.2c-1.813 0.713-3.072 2.449-3.072 4.478 0 0.001 0 0.001 0 0.002v-0 2.016c0 0.001 0 0.001 0 0.002 0 2.029 1.26 3.765 3.039 4.467l0.033 0.011 3.2 1.216-3.072 10.464c-0.038 0.13-0.060 0.279-0.060 0.433 0 0.884 0.716 1.6 1.6 1.6 0.021 0 0.042-0 0.063-0.001l-0.003 0h4.8c0.025 0.001 0.054 0.002 0.083 0.002 0.701 0 1.297-0.451 1.513-1.079l0.003-0.011 2.736-8.512 7.888 3.024c0.166 0.093 0.362 0.156 0.57 0.176l0.006 0c0.884 0 1.6-0.716 1.6-1.6v0-5.024c2.776-0.734 4.79-3.218 4.8-6.175v-0.001z"></path>
<path fill="var(--color-1)" d="M33.6 11.2h-1.6c-0.884 0-1.6 0.716-1.6 1.6s0.716 1.6 1.6 1.6v0h1.6c0.884 0 1.6-0.716 1.6-1.6s-0.716-1.6-1.6-1.6v0z"></path>
<path fill="var(--color-1)" d="M29.034 6.96c0.437-0.002 0.832-0.179 1.12-0.464l1.136-1.136c0.239-0.278 0.385-0.642 0.385-1.041 0-0.884-0.716-1.6-1.6-1.6-0.398 0-0.763 0.146-1.043 0.386l0.002-0.002-1.136 1.136c-0.283 0.288-0.457 0.684-0.457 1.12 0 0.881 0.713 1.596 1.593 1.6h0z"></path>
<path fill="var(--color-1)" d="M30.16 19.104c-0.278-0.239-0.642-0.385-1.041-0.385-0.884 0-1.6 0.716-1.6 1.6 0 0.398 0.146 0.763 0.387 1.043l-0.002-0.002 1.136 1.136c0.278 0.239 0.642 0.385 1.041 0.385 0.884 0 1.6-0.716 1.6-1.6 0-0.398-0.146-0.763-0.387-1.043l0.002 0.002z"></path>
</symbol>
<symbol id="icon-ek--goal" viewBox="0 0 32 32">
<title>ek--goal</title>
<path fill="var(--color-2)" d="M14.693 21.084h7.936l1.163 1.6c-1.48 0.834-3.248 1.325-5.131 1.325s-3.652-0.491-5.185-1.352l0.053 0.028zM8.195 11.337l1.885 0.613 2.456 7.553-1.157 1.587c-2.079-1.941-3.376-4.698-3.379-7.757v-0c0-0.671 0.067-1.34 0.193-1.999zM17.333 2.756v1.977l-6.431 4.652-1.877-0.612c1.562-3.238 4.621-5.537 8.254-6.010l0.054-0.006zM28.328 8.791l-1.88 0.612-6.443-4.66v-1.98c3.691 0.481 6.753 2.784 8.29 5.963l0.028 0.064zM14.981 18.404l-2.276-7.005 5.961-4.331 5.96 4.328-2.276 7.007zM25.955 21.092l-1.156-1.587 2.456-7.552 1.884-0.613c0.124 0.606 0.194 1.303 0.194 2.016 0 3.053-1.297 5.804-3.37 7.73l-0.007 0.006zM32 13.329c-0.001-1.463-0.238-2.871-0.676-4.187l0.027 0.094v-0.027c0-0.009-0.015-0.020-0.019-0.033-1.795-5.38-6.786-9.191-12.667-9.191s-10.872 3.81-12.639 9.097l-0.027 0.094c0 0.011-0.011 0.017-0.015 0.027v0.021c-0.413 1.226-0.651 2.637-0.651 4.105 0 4.381 2.122 8.266 5.394 10.683l0.036 0.026c0.025 0.020 0.037 0.049 0.064 0.069s0.061 0.028 0.091 0.047c2.147 1.564 4.837 2.502 7.747 2.502s5.6-0.938 7.785-2.529l-0.038 0.026c0.031-0.019 0.064-0.025 0.093-0.047s0.039-0.049 0.064-0.069c3.304-2.446 5.424-6.328 5.431-10.706v-0.001z"></path>
<path fill="var(--color-1)" d="M4.393 25.72l-4 4c-0.242 0.241-0.391 0.575-0.391 0.943 0 0.737 0.597 1.334 1.334 1.334 0.368 0 0.701-0.149 0.943-0.39l4-4c0.232-0.24 0.374-0.566 0.374-0.926 0-0.736-0.597-1.333-1.333-1.333-0.36 0-0.687 0.143-0.927 0.375l0-0z"></path>
<path fill="var(--color-1)" d="M9.727 28.387l-1.333 1.333c-0.242 0.241-0.391 0.575-0.391 0.943 0 0.737 0.597 1.334 1.334 1.334 0.368 0 0.701-0.149 0.943-0.39l1.333-1.333c0.232-0.24 0.374-0.566 0.374-0.926 0-0.736-0.597-1.333-1.333-1.333-0.36 0-0.687 0.143-0.927 0.375l0-0z"></path>
<path fill="var(--color-1)" d="M1.333 23.997c0.368-0 0.701-0.149 0.943-0.391l1.333-1.333c0.232-0.24 0.374-0.566 0.374-0.926 0-0.736-0.597-1.333-1.333-1.333-0.36 0-0.687 0.143-0.927 0.375l-1.333 1.333c-0.241 0.241-0.39 0.575-0.39 0.943 0 0.736 0.597 1.333 1.333 1.333h0z"></path>
</symbol>
<symbol id="icon-ek--oval" viewBox="0 0 32 32">
<title>ek--oval</title>
<path d="M16 32c8.837 0 16-7.163 16-16s-7.163-16-16-16v0c-8.837 0-16 7.163-16 16s7.163 16 16 16v0z"></path>
</symbol>
<symbol id="icon-right" viewBox="0 0 45 32">
<title>right</title>
<path d="M44.729 14.586l-14.424-14c-0.805-0.781-2.109-0.781-2.914 0s-0.805 2.047 0 2.828l10.907 10.586h-36.237c-1.138 0-2.061 0.895-2.061 2s0.923 2 2.061 2h36.237l-10.907 10.586c-0.805 0.781-0.805 2.047 0 2.828s2.109 0.781 2.914 0l14.424-14c0.387-0.375 0.604-0.884 0.604-1.414s-0.217-1.039-0.604-1.414z"></path>
</symbol>
<symbol id="icon-ek--arrow--down" viewBox="0 0 51 32">
<title>ek--arrow--down</title>
<path d="M6.4 6.4l20.064 19.2 18.336-19.2z"></path>
<path stroke-linejoin="round" stroke-linecap="round" stroke-miterlimit="50" stroke-width="9.6" d="M6.4 6.4v0l20.064 19.2 18.336-19.2z"></path>
</symbol>
<symbol id="icon-ek--arrow--left" viewBox="0 0 37 32">
<title>ek--arrow--left</title>
<path stroke-linejoin="round" stroke-linecap="round" stroke-miterlimit="50" stroke-width="5.3333" d="M2.667 16h32"></path>
<path stroke-linejoin="round" stroke-linecap="round" stroke-miterlimit="50" stroke-width="5.3333" d="M21.333 29.333v0l13.333-13.333-13.333-13.333"></path>
</symbol>
<symbol id="icon-ek--arrow--up" viewBox="0 0 51 32">
<title>ek--arrow--up</title>
<path d="M6.4 25.6l20.064-19.2 18.336 19.2z"></path>
<path stroke-linejoin="round" stroke-linecap="round" stroke-miterlimit="50" stroke-width="9.6" d="M6.4 25.6v0l20.064-19.2 18.336 19.2z"></path>
</symbol>
<symbol id="icon-ek--played" viewBox="0 0 33 32">
<title>ek--played</title>
<path d="M17.294 17.725h-2.226v-3.896h2.226c1.076 0 1.948 0.872 1.948 1.948s-0.872 1.948-1.948 1.948v0zM13.677 11.047c-0.768 0-1.391 0.623-1.391 1.391v0 11.13c0 0.768 0.623 1.391 1.391 1.391s1.391-0.623 1.391-1.391v0-3.061h2.226c2.613 0 4.73-2.118 4.73-4.73s-2.118-4.73-4.73-4.73v0z"></path>
<path d="M29.66 13.96l-4.555 14.212c-0.18 0.561-0.696 0.96-1.305 0.961h-14.752c-0.598 0-1.127-0.39-1.308-0.961l-4.548-14.204c-0.186-0.572 0.014-1.198 0.497-1.557l11.93-8.783c0.222-0.167 0.503-0.267 0.807-0.267s0.585 0.1 0.811 0.269l-0.004-0.003 11.928 8.783c0.345 0.256 0.567 0.663 0.567 1.121 0 0.153-0.025 0.3-0.070 0.438l0.003-0.010zM18.837 1.37c-0.667-0.5-1.508-0.8-2.419-0.8s-1.753 0.3-2.43 0.808l0.011-0.008-11.922 8.783c-1.036 0.773-1.7 1.995-1.7 3.373 0 0.462 0.075 0.907 0.213 1.323l-0.009-0.030 4.554 14.212c0.538 1.681 2.084 2.878 3.91 2.884h14.749c1.829-0.004 3.377-1.202 3.907-2.855l0.008-0.029 4.554-14.211c0.129-0.386 0.204-0.83 0.204-1.291 0-1.38-0.666-2.604-1.695-3.369l-0.011-0.008z"></path>
</symbol>
<symbol id="icon-ek--budget" viewBox="0 0 24 32">
<title>ek--budget</title>
<path fill="var(--color-1)" d="M10 15.333c0.736 0.001 1.332 0.597 1.332 1.333s-0.597 1.333-1.333 1.333c-0.491 0-0.92-0.265-1.151-0.66l-0.003-0.006c-0.236-0.397-0.662-0.659-1.15-0.659-0.736 0-1.333 0.597-1.333 1.333 0 0.242 0.065 0.47 0.178 0.665l-0.003-0.006c0.483 0.813 1.24 1.427 2.133 1.733v0.267c0 0.736 0.597 1.333 1.333 1.333s1.333-0.597 1.333-1.333v0-0.245c1.566-0.563 2.665-2.035 2.665-3.764 0-2.204-1.787-3.991-3.991-3.991-0.003 0-0.005 0-0.008 0h0c-0.736-0.001-1.332-0.597-1.332-1.333s0.597-1.333 1.333-1.333c0.491 0 0.92 0.265 1.151 0.66l0.003 0.006c0.236 0.397 0.662 0.659 1.15 0.659 0.736 0 1.333-0.597 1.333-1.333 0-0.242-0.065-0.47-0.178-0.665l0.003 0.006c-0.484-0.808-1.223-1.421-2.105-1.731l-0.028-0.009v-0.26c0-0.736-0.597-1.333-1.333-1.333s-1.333 0.597-1.333 1.333v0 0.245c-1.562 0.564-2.659 2.030-2.667 3.754v0.001c0.002 0.736 0.2 1.425 0.544 2.019l-0.010-0.019c0.706 1.203 1.993 1.999 3.467 2h0z"></path>
<path fill="var(--color-2)" d="M14.912 2.667c0.413 1.132 1.289 2.009 2.394 2.412l0.028 0.009v17.824c-1.132 0.413-2.009 1.289-2.412 2.394l-0.009 0.028h-9.824c-0.413-1.132-1.289-2.009-2.394-2.412l-0.028-0.009v-17.824c1.132-0.413 2.009-1.289 2.412-2.394l0.009-0.028zM16 28c2.209 0 4-1.791 4-4v0-20c0-2.209-1.791-4-4-4v0h-12c-2.209 0-4 1.791-4 4v0 20c0 2.209 1.791 4 4 4v0z"></path>
<path fill="var(--color-2)" d="M22.667 2.667c-0.736 0-1.333 0.597-1.333 1.333v0 20c0 2.946-2.388 5.333-5.333 5.333v0h-10.667c-0.736 0-1.333 0.597-1.333 1.333s0.597 1.333 1.333 1.333v0h10.667c4.416-0.005 7.995-3.584 8-7.999v-20.001c0-0.736-0.597-1.333-1.333-1.333v0z"></path>
</symbol>
<symbol id="icon-ek--camp" viewBox="0 0 32 32">
<title>ek--camp</title>
<path fill="var(--color-2)" d="M12.671 16l-1.6-2.133c-0.255-0.309-0.638-0.504-1.067-0.504s-0.811 0.195-1.065 0.501l-0.002 0.002-1.6 2.133h-3.313c1.411-1.907 3.587-4.965 5.98-8.756 2.222 3.515 4.192 6.37 6.258 9.148l-0.279-0.393zM19.711 16.501c-2.654-3.394-5.339-7.239-7.819-11.225l-0.326-0.563c0.533-0.877 1.067-1.787 1.6-2.717 0.12-0.196 0.192-0.434 0.192-0.689 0-0.736-0.597-1.333-1.333-1.333-0.504 0-0.943 0.28-1.169 0.692l-0.003 0.007c-0.28 0.491-0.563 0.976-0.843 1.452-0.28-0.477-0.56-0.96-0.843-1.453-0.233-0.409-0.666-0.681-1.163-0.681-0.736 0-1.333 0.597-1.333 1.333 0 0.247 0.067 0.479 0.185 0.677l-0.003-0.006c0.533 0.931 1.067 1.837 1.6 2.717-2.808 4.55-5.493 8.395-8.369 12.084l0.223-0.298c-0.183 0.226-0.294 0.518-0.294 0.835 0 0.734 0.593 1.329 1.325 1.333h6.667c0.435 0 0.821-0.208 1.064-0.53l0.002-0.003 0.933-1.244 0.933 1.244c0.246 0.325 0.632 0.533 1.067 0.533v0h6.667c0.736-0 1.332-0.597 1.332-1.333 0-0.317-0.11-0.607-0.294-0.836l0.002 0.003z"></path>
<path fill="var(--color-2)" d="M5.213 22.667c0-0.736 0.597-1.333 1.333-1.333v0h6.667c0.736 0 1.333 0.597 1.333 1.333s-0.597 1.333-1.333 1.333v0h-6.667c-0.736 0-1.333-0.597-1.333-1.333v0z"></path>
<path fill="var(--color-1)" d="M19.396 29.333l1.197-2.667h5.467l1.197 2.667zM23.327 20.583l1.531 3.417h-3.061zM30.667 29.333h-0.472l-5.645-12.547c-0.214-0.468-0.678-0.786-1.216-0.786s-1.002 0.319-1.213 0.778l-0.003 0.008-5.647 12.547h-0.471c-0.736 0-1.333 0.597-1.333 1.333s0.597 1.333 1.333 1.333v0h14.667c0.736 0 1.333-0.597 1.333-1.333s-0.597-1.333-1.333-1.333v0z"></path>
</symbol>
<symbol id="icon-ek--challenge" viewBox="0 0 32 32">
<title>ek--challenge</title>
<path fill="var(--color-2)" d="M28.973 22.717c-0.035-0.1-0.079-0.186-0.133-0.266l0.002 0.004c-0.058-0.081-0.115-0.153-0.176-0.22l0.002 0.002c-0.263-0.259-0.623-0.419-1.022-0.419-0.204 0-0.397 0.042-0.573 0.117l0.009-0.004c-0.176 0.073-0.339 0.177-0.48 0.305l-0.175 0.218c-0.052 0.075-0.096 0.162-0.129 0.254l-0.002 0.008c-0.042 0.080-0.073 0.173-0.087 0.272l-0.001 0.005c-0.018 0.086-0.028 0.185-0.028 0.286 0 0.803 0.651 1.455 1.455 1.455s1.455-0.651 1.455-1.455c0-0.101-0.010-0.2-0.030-0.295l0.002 0.009c-0.015-0.103-0.046-0.196-0.091-0.281l0.002 0.005z"></path>
<path fill="var(--color-2)" d="M18.055 6.666c-0.263-0.263-0.627-0.426-1.028-0.426s-0.765 0.163-1.028 0.426v0c-0.261-0.253-0.618-0.408-1.011-0.408-0.803 0-1.455 0.651-1.455 1.455 0 0.393 0.156 0.749 0.409 1.011l-0-0c-0.274 0.265-0.443 0.635-0.443 1.046 0 0.803 0.651 1.455 1.455 1.455 0.411 0 0.782-0.17 1.047-0.444l0-0c0.261 0.253 0.618 0.408 1.011 0.408 0.803 0 1.455-0.651 1.455-1.455 0-0.393-0.156-0.749-0.409-1.011l0 0c0.263-0.263 0.426-0.627 0.426-1.028s-0.163-0.765-0.426-1.028v0z"></path>
<path fill="var(--color-2)" d="M4.655 24.698c0.098-0.017 0.186-0.048 0.267-0.090l-0.005 0.002c0.1-0.035 0.186-0.079 0.266-0.133l-0.004 0.002c0.076-0.054 0.148-0.112 0.218-0.175 0.131-0.138 0.236-0.301 0.305-0.48 0.071-0.163 0.114-0.352 0.116-0.552v-0.001c-0.006-0.401-0.166-0.764-0.422-1.033l0.001 0.001-0.218-0.175c-0.075-0.052-0.162-0.096-0.254-0.129l-0.008-0.002c-0.076-0.040-0.164-0.070-0.256-0.086l-0.006-0.001c-0.086-0.019-0.184-0.030-0.286-0.030-0.202 0-0.394 0.043-0.567 0.12l0.009-0.004c-0.176 0.074-0.339 0.177-0.48 0.305-0.256 0.269-0.416 0.631-0.422 1.032v0.001c0.002 0.2 0.045 0.39 0.12 0.562l-0.004-0.009c0.070 0.179 0.175 0.342 0.305 0.48 0.141 0.129 0.304 0.233 0.48 0.305 0.152 0.074 0.331 0.117 0.521 0.117 0.011 0 0.023-0 0.034-0l-0.002 0c0.097-0.001 0.195-0.012 0.291-0.029z"></path>
<path fill="var(--color-2)" d="M21.264 23.383c-0.176 0.073-0.339 0.176-0.48 0.305-0.256 0.269-0.415 0.632-0.42 1.032v0.001c0.003 0.2 0.045 0.39 0.12 0.562l-0.004-0.009c0.135 0.366 0.419 0.65 0.776 0.783l0.009 0.003c0.163 0.074 0.353 0.116 0.553 0.116s0.39-0.043 0.561-0.12l-0.009 0.003c0.187-0.071 0.347-0.174 0.48-0.306l-0 0c0.128-0.143 0.233-0.305 0.305-0.48 0.071-0.163 0.114-0.352 0.116-0.552v-0.001c-0.006-0.401-0.166-0.764-0.422-1.033l0.001 0.001c-0.266-0.257-0.628-0.415-1.028-0.415-0.202 0-0.394 0.040-0.569 0.113l0.010-0.004z"></path>
<path fill="var(--color-2)" d="M11.519 25.276c0.072-0.163 0.115-0.352 0.118-0.552v-0.001c-0.006-0.401-0.166-0.764-0.422-1.033l0.001 0.001c-0.268-0.259-0.633-0.418-1.036-0.418-0.097 0-0.191 0.009-0.283 0.027l0.009-0.002c-0.103 0.015-0.196 0.045-0.281 0.090l0.005-0.002c-0.095 0.031-0.177 0.076-0.249 0.132l0.002-0.001c-0.087 0.058-0.16 0.116-0.233 0.175-0.128 0.143-0.233 0.305-0.305 0.48-0.073 0.163-0.116 0.353-0.116 0.553s0.043 0.39 0.12 0.561l-0.003-0.009c0.070 0.179 0.175 0.342 0.305 0.48 0.069 0.064 0.145 0.122 0.227 0.171l0.006 0.003c0.074 0.058 0.157 0.102 0.247 0.131 0.080 0.042 0.173 0.073 0.272 0.087l0.005 0.001c0.092 0.017 0.183 0.028 0.276 0.029 0.385-0.006 0.753-0.156 1.033-0.422 0.128-0.141 0.231-0.304 0.304-0.48z"></path>
<path fill="var(--color-2)" d="M27.519 28.534c-0.035-0.1-0.079-0.186-0.133-0.266l0.002 0.004c-0.058-0.081-0.115-0.153-0.176-0.22l0.002 0.002c-0.27-0.258-0.636-0.417-1.040-0.417-0.095 0-0.188 0.009-0.278 0.026l0.009-0.001c-0.103 0.015-0.196 0.045-0.281 0.090l0.005-0.002c-0.095 0.031-0.177 0.076-0.249 0.132l0.002-0.001c-0.087 0.058-0.16 0.116-0.233 0.175l-0.175 0.218c-0.052 0.075-0.096 0.162-0.129 0.254l-0.002 0.008c-0.040 0.076-0.070 0.164-0.086 0.256l-0.001 0.006c-0.015 0.085-0.025 0.186-0.028 0.288l-0 0.003c0.006 0.384 0.156 0.753 0.422 1.033 0.073 0.058 0.145 0.116 0.233 0.175 0.074 0.058 0.159 0.102 0.247 0.131 0.080 0.042 0.173 0.073 0.272 0.087l0.005 0.001c0.089 0.019 0.19 0.031 0.295 0.031 0.795 0 1.44-0.645 1.44-1.44 0-0.109-0.012-0.215-0.035-0.317l0.002 0.010c-0.018-0.098-0.049-0.186-0.091-0.267l0.002 0.005z"></path>
<path fill="var(--color-2)" d="M4.784 28.055c-0.128 0.141-0.233 0.304-0.305 0.48-0.072 0.166-0.113 0.36-0.113 0.563 0 0.099 0.010 0.197 0.029 0.29l-0.002-0.009c0.015 0.092 0.045 0.179 0.087 0.262 0.035 0.1 0.079 0.186 0.133 0.266l-0.002-0.004 0.175 0.218c0.266 0.261 0.63 0.422 1.033 0.422s0.767-0.161 1.033-0.422l-0 0c0.063-0.070 0.121-0.143 0.175-0.218 0.052-0.075 0.096-0.162 0.129-0.254l0.002-0.008c0.040-0.076 0.070-0.164 0.086-0.256l0.001-0.006c0.019-0.073 0.030-0.157 0.030-0.243 0-0.017-0-0.034-0.001-0.050l0 0.002c0-0.387-0.15-0.756-0.422-1.033-0.271-0.251-0.634-0.404-1.033-0.404s-0.763 0.154-1.034 0.405l0.001-0.001z"></path>
<path fill="var(--color-1)" d="M25.779 12.436c0.003 0 0.004-0.003 0.007-0.004l-0.001 0.004zM27.222 7.188c0.122 0.046 0.264 0.076 0.411 0.084l0.004 0h1.372c-0.094 2.226-1.358 4.138-3.19 5.143l-0.032 0.016c0.687-1.684 1.168-3.444 1.436-5.244zM16 17.455c-0.247 0-7.585-0.301-8.605-12.945-0.003-0.038-0.005-0.081-0.005-0.125 0-0.389 0.15-0.742 0.396-1.006l-0.001 0.001c0.262-0.288 0.639-0.469 1.057-0.47h14.316c0.807 0.009 1.458 0.666 1.458 1.475 0 0.044-0.002 0.087-0.006 0.129l0-0.006c-1.014 12.567-8.212 12.937-8.611 12.947zM4.364 7.273c0.153-0.008 0.296-0.038 0.43-0.088l-0.010 0.003c0.268 1.799 0.751 3.561 1.436 5.247-1.867-1.020-3.134-2.933-3.227-5.15l-0-0.012zM30.545 4.364h-2.909c-0.048 0-0.089 0.023-0.135 0.028 0-0.016 0-0.036 0-0.055 0-2.395-1.941-4.336-4.336-4.336-0.003 0-0.005 0-0.008 0h-14.315c-0.002 0-0.005 0-0.008 0-2.395 0-4.336 1.941-4.336 4.336 0 0.019 0 0.039 0 0.058l-0-0.003c-0.047 0-0.087-0.028-0.135-0.028h-2.909c-0.803 0-1.455 0.651-1.455 1.455v0c0 7.654 5.151 9.952 8.255 10.161 1.539 2.028 3.708 3.507 6.213 4.149l0.078 0.017v8.945h-2.909c-0.803 0-1.455 0.651-1.455 1.455s0.651 1.455 1.455 1.455v0h8.727c0.803 0 1.455-0.651 1.455-1.455s-0.651-1.455-1.455-1.455v0h-2.909v-8.945c2.583-0.659 4.752-2.138 6.271-4.138l0.020-0.028c3.104-0.209 8.255-2.508 8.255-10.161 0-0.803-0.651-1.455-1.455-1.455v0z"></path>
</symbol>
<symbol id="icon-ek--coins" viewBox="0 0 29 32">
<title>ek--coins</title>
<path fill="var(--color-2)" d="M14.673 29.333c-3.874-0.001-7.294-1.945-9.338-4.911l-0.025-0.038c2.463 2.243 5.753 3.616 9.363 3.616s6.899-1.373 9.374-3.626l-0.011 0.010c-2.070 3.003-5.489 4.947-9.362 4.949h-0zM14.667 2.667c6.259 0 11.333 5.074 11.333 11.333s-5.074 11.333-11.333 11.333c-6.259 0-11.333-5.074-11.333-11.333v0c0.008-6.256 5.077-11.326 11.333-11.333h0.001zM0.667 14v4c0 7.732 6.268 14 14 14s14-6.268 14-14v-4c-0.009-7.728-6.272-13.991-14-14-7.728 0.009-13.991 6.272-14 14z"></path>
<path fill="var(--color-1)" d="M8 19.333h4c0.736 0 1.333-0.597 1.333-1.333s-0.597-1.333-1.333-1.333v0h-2.667v-1.333h2.667c0.736 0 1.333-0.597 1.333-1.333s-0.597-1.333-1.333-1.333v0h-2.667v-1.333h2.667c0.736 0 1.333-0.597 1.333-1.333s-0.597-1.333-1.333-1.333v0h-4c-0.736 0-1.333 0.597-1.333 1.333v0 8c0 0.736 0.597 1.333 1.333 1.333v0z"></path>
<path fill="var(--color-1)" d="M17.333 19.333c0.736 0 1.333-0.597 1.333-1.333v0-1.333l1.6 2.133c0.246 0.325 0.632 0.533 1.067 0.533 0.736 0 1.333-0.597 1.333-1.333 0-0.302-0.1-0.58-0.269-0.803l0.002 0.003-2.4-3.2 2.4-3.2c0.166-0.22 0.267-0.498 0.267-0.8 0-0.736-0.597-1.333-1.333-1.333-0.435 0-0.821 0.208-1.064 0.53l-0.002 0.003-1.6 2.133v-1.333c0-0.736-0.597-1.333-1.333-1.333s-1.333 0.597-1.333 1.333v0 8c0 0.736 0.597 1.333 1.333 1.333v0z"></path>
</symbol>
<symbol id="icon-ek--cup" viewBox="0 0 32 32">
<title>ek--cup</title>
<path fill="var(--color-2)" d="M30.279 24.384c-0.248-0.229-0.581-0.37-0.947-0.37s-0.699 0.141-0.948 0.371l0.001-0.001c-0.117 0.129-0.213 0.277-0.28 0.44-0.066 0.153-0.105 0.331-0.105 0.518 0 0.090 0.009 0.179 0.026 0.264l-0.001-0.009c0.017 0.090 0.045 0.171 0.084 0.245l-0.002-0.005c0.027 0.081 0.067 0.159 0.12 0.227 0.053 0.080 0.107 0.147 0.16 0.213l0.2 0.16c0.069 0.048 0.148 0.088 0.233 0.118l0.007 0.002c0.080 0.040 0.164 0.067 0.252 0.080 0.084 0.015 0.169 0.024 0.255 0.027 0.353-0.005 0.691-0.144 0.947-0.387 0.059-0.063 0.111-0.133 0.157-0.208l0.003-0.006c0.051-0.065 0.091-0.14 0.119-0.221l0.002-0.005c0.037-0.069 0.064-0.15 0.078-0.235l0.001-0.005c0.016-0.088 0.027-0.177 0.028-0.267-0.002-0.184-0.041-0.357-0.11-0.515l0.003 0.009c-0.072-0.169-0.167-0.315-0.282-0.441l0.001 0.001z"></path>
<path fill="var(--color-2)" d="M3.613 24.384c-0.248-0.229-0.581-0.37-0.947-0.37s-0.699 0.141-0.948 0.371l0.001-0.001c-0.117 0.129-0.213 0.277-0.28 0.44-0.067 0.149-0.107 0.323-0.107 0.507s0.039 0.358 0.11 0.515l-0.003-0.008c0.067 0.16 0.163 0.309 0.28 0.44 0.244 0.239 0.578 0.387 0.947 0.387s0.703-0.148 0.947-0.387l-0 0c0.117-0.131 0.213-0.28 0.28-0.44 0.067-0.149 0.107-0.323 0.107-0.507s-0.039-0.358-0.11-0.515l0.003 0.008c-0.068-0.17-0.163-0.316-0.281-0.441l0.001 0.001z"></path>
<path fill="var(--color-2)" d="M26.559 27.489c-0.029-0.087-0.069-0.162-0.121-0.228l0.001 0.002c-0.049-0.081-0.101-0.15-0.161-0.214l0.001 0.001c-0.246-0.237-0.581-0.383-0.95-0.383-0.088 0-0.175 0.008-0.258 0.024l0.009-0.001c-0.094 0.014-0.179 0.042-0.256 0.082l0.005-0.002c-0.087 0.028-0.162 0.069-0.228 0.121l0.002-0.001c-0.081 0.053-0.147 0.107-0.213 0.16-0.235 0.246-0.381 0.579-0.387 0.946v0.001c0.003 0.353 0.141 0.693 0.387 0.947 0.063 0.059 0.133 0.112 0.208 0.157l0.006 0.003c0.067 0.053 0.144 0.093 0.227 0.12 0.080 0.040 0.164 0.067 0.252 0.080 0.081 0.018 0.175 0.028 0.27 0.028 0.729 0 1.32-0.591 1.32-1.32 0-0.1-0.011-0.197-0.032-0.29l0.002 0.009c-0.015-0.090-0.043-0.171-0.082-0.244l0.002 0.004z"></path>
<path fill="var(--color-2)" d="M5.72 27.059c-0.239 0.244-0.387 0.578-0.387 0.947s0.148 0.703 0.387 0.947l-0-0c0.063 0.057 0.129 0.111 0.2 0.16 0.069 0.048 0.148 0.088 0.233 0.118l0.007 0.002c0.080 0.040 0.164 0.067 0.253 0.080 0.083 0.016 0.169 0.024 0.255 0.027 0.089-0.003 0.179-0.011 0.267-0.027 0.090-0.016 0.171-0.044 0.245-0.082l-0.005 0.002c0.092-0.031 0.171-0.072 0.243-0.122l-0.003 0.002c0.075-0.052 0.14-0.105 0.201-0.161l-0.001 0.001c0.242-0.242 0.392-0.577 0.392-0.947 0-0.739-0.599-1.339-1.339-1.339-0.37 0-0.704 0.15-0.947 0.392v0z"></path>
<path fill="var(--color-2)" d="M16 8c-0.736 0-1.333 0.597-1.333 1.333v0 4c0 0.736 0.597 1.333 1.333 1.333s1.333-0.597 1.333-1.333v0-4c0-0.736-0.597-1.333-1.333-1.333v0z"></path>
<path fill="var(--color-1)" d="M24.979 15.403c0.545-1.774 0.996-3.894 1.267-6.070l0.019-0.19 2.932-0.731c-0.607 2.83-2.113 5.239-4.199 6.974l-0.020 0.016zM16 24c-1.42 0-7.224-4.857-7.931-18.607-0.001-0.021-0.002-0.045-0.002-0.070 0-0.351 0.139-0.67 0.365-0.904l-0 0c0.244-0.259 0.589-0.42 0.971-0.42 0.001 0 0.002 0 0.003 0h13.186c0.001 0 0.002 0 0.003 0 0.383 0 0.728 0.161 0.971 0.419l0.001 0.001c0.251 0.26 0.381 0.613 0.363 0.973-0.707 13.749-6.512 18.607-7.931 18.607zM2.82 8.416l2.924 0.731c0.261 2.131 0.701 4.235 1.316 6.292-2.12-1.759-3.635-4.181-4.229-6.945l-0.015-0.081zM30.344 5.373l-3.813 0.953c0.019-0.267 0.049-0.519 0.064-0.8 0.004-0.064 0.006-0.138 0.006-0.213 0-1.062-0.419-2.025-1.1-2.735l0.001 0.001c-0.734-0.767-1.765-1.244-2.908-1.247h-13.187c-1.144 0.003-2.175 0.482-2.906 1.249l-0.002 0.002c-0.68 0.708-1.099 1.672-1.099 2.734 0 0.075 0.002 0.149 0.006 0.223l-0-0.010c0.013 0.275 0.043 0.527 0.060 0.8l-3.809-0.952c-0.097-0.025-0.208-0.040-0.323-0.040-0.734 0-1.33 0.594-1.333 1.327v0c0 8.724 8.38 13.015 8.737 13.193 0.023 0.011 0.047 0.015 0.071 0.025 1.113 2.413 2.765 4.412 4.808 5.905l0.042 0.030c-0.198 0.225-0.321 0.521-0.325 0.846v0.001c0 0.736 0.597 1.333 1.333 1.333v0h-2.667c-0.736 0-1.333 0.597-1.333 1.333s0.597 1.333 1.333 1.333v0h8c0.736 0 1.333-0.597 1.333-1.333s-0.597-1.333-1.333-1.333v0h-2.667c0.736 0 1.333-0.597 1.333-1.333v0c-0.007-0.305-0.117-0.583-0.297-0.802l0.002 0.002c1.683-1.191 3.054-2.711 4.041-4.474l0.035-0.068c0.252-0.425 0.515-0.92 0.779-1.451 0.012 0 0.024 0 0.036-0.012 0.357-0.18 8.737-4.471 8.737-13.195-0-0.736-0.597-1.333-1.333-1.333-0.115 0-0.226 0.014-0.332 0.042l0.009-0.002z"></path>
</symbol>
<symbol id="icon-ek--daily" viewBox="0 0 32 32">
<title>ek--daily</title>
<path fill="var(--color-2)" d="M2.667 16v-8h13.333v8c0 0.736-0.597 1.333-1.333 1.333v0h-10.667c-0.736 0-1.333-0.597-1.333-1.333v0zM18.667 16v-12c0-0.736-0.597-1.333-1.333-1.333v0h-2.667v-1.333c0-0.736-0.597-1.333-1.333-1.333s-1.333 0.597-1.333 1.333v0 1.333h-5.333v-1.333c0-0.736-0.597-1.333-1.333-1.333s-1.333 0.597-1.333 1.333v0 1.333h-2.667c-0.736 0-1.333 0.597-1.333 1.333v0 12c0 2.209 1.791 4 4 4v0h10.667c2.209 0 4-1.791 4-4v0z"></path>
<path fill="var(--color-1)" d="M6.279 9.717c-0.248-0.229-0.581-0.37-0.947-0.37s-0.699 0.141-0.948 0.371l0.001-0.001c-0.117 0.129-0.213 0.277-0.28 0.44-0.065 0.149-0.104 0.323-0.105 0.506v0.001c0 0.736 0.597 1.333 1.333 1.333s1.333-0.597 1.333-1.333v0c-0.002-0.184-0.041-0.357-0.11-0.515l0.003 0.009c-0.072-0.169-0.167-0.315-0.282-0.441l0.001 0.001z"></path>
<path fill="var(--color-2)" d="M8.4 9.717c-0.253 0.251-0.396 0.591-0.4 0.947 0.007 0.355 0.151 0.693 0.4 0.947 0.242 0.238 0.575 0.385 0.941 0.385 0.092 0 0.181-0.009 0.267-0.027l-0.009 0.001c0.090-0.016 0.171-0.044 0.245-0.082l-0.005 0.002c0.091-0.031 0.17-0.072 0.242-0.122l-0.003 0.002c0.075-0.052 0.141-0.105 0.203-0.161l-0.002 0.001c0.117-0.131 0.213-0.28 0.28-0.44 0.068-0.141 0.107-0.306 0.107-0.481 0-0.009-0-0.018-0-0.027l0 0.001c-0.006-0.368-0.152-0.7-0.387-0.947l0.001 0.001c-0.246-0.229-0.576-0.37-0.94-0.37s-0.694 0.141-0.941 0.371l0.001-0.001z"></path>
<path fill="var(--color-2)" d="M14.077 9.563c-0.069-0.048-0.148-0.088-0.232-0.118l-0.007-0.002c-0.069-0.036-0.15-0.064-0.235-0.079l-0.005-0.001c-0.082-0.018-0.177-0.029-0.274-0.029-0.731 0-1.324 0.593-1.324 1.324 0 0.187 0.039 0.365 0.109 0.526l-0.003-0.009c0.064 0.163 0.16 0.312 0.28 0.44 0.256 0.243 0.593 0.381 0.947 0.387 0.089-0.003 0.179-0.012 0.267-0.027 0.090-0.016 0.171-0.044 0.245-0.082l-0.005 0.002c0.091-0.031 0.17-0.072 0.242-0.122l-0.003 0.002c0.071-0.049 0.137-0.103 0.201-0.16 0.117-0.131 0.213-0.28 0.28-0.44 0.068-0.141 0.107-0.306 0.107-0.481 0-0.009-0-0.018-0-0.027l0 0.001c-0.006-0.368-0.152-0.7-0.387-0.947l0.001 0.001z"></path>
<path fill="var(--color-2)" d="M14.28 13.716c-0.060-0.055-0.126-0.108-0.195-0.156l-0.006-0.004c-0.069-0.048-0.148-0.088-0.232-0.118l-0.007-0.002c-0.069-0.036-0.15-0.064-0.235-0.079l-0.005-0.001c-0.439-0.080-0.889 0.053-1.213 0.36-0.12 0.128-0.216 0.277-0.28 0.44-0.067 0.149-0.107 0.323-0.107 0.507s0.039 0.358 0.11 0.515l-0.003-0.008c0.064 0.164 0.16 0.313 0.28 0.44 0.256 0.244 0.595 0.383 0.948 0.387 0.089-0.001 0.179-0.011 0.267-0.027 0.090-0.016 0.171-0.044 0.245-0.082l-0.005 0.002c0.091-0.031 0.17-0.072 0.242-0.122l-0.003 0.002 0.201-0.16c0.243-0.256 0.381-0.593 0.387-0.947 0-0.008 0-0.017 0-0.025 0-0.175-0.039-0.34-0.11-0.488l0.003 0.007c-0.072-0.169-0.167-0.315-0.282-0.441l0.001 0.001z"></path>
<path fill="var(--color-2)" d="M4.387 13.717c-0.239 0.244-0.387 0.578-0.387 0.947s0.148 0.703 0.387 0.947l-0-0c0.253 0.247 0.595 0.385 0.948 0.387 0.184-0.002 0.357-0.041 0.515-0.11l-0.009 0.003c0.49-0.205 0.827-0.68 0.827-1.234 0-0.367-0.148-0.699-0.388-0.94l0 0c-0.248-0.229-0.581-0.37-0.947-0.37s-0.699 0.141-0.948 0.371l0.001-0.001z"></path>
<path fill="var(--color-2)" d="M8.395 13.717c-0.243 0.242-0.393 0.576-0.393 0.946 0 0.736 0.597 1.333 1.333 1.333 0.092 0 0.182-0.009 0.269-0.027l-0.009 0.001c0.090-0.016 0.171-0.044 0.245-0.082l-0.005 0.002c0.091-0.031 0.17-0.072 0.242-0.122l-0.003 0.002c0.075-0.052 0.14-0.105 0.201-0.161l-0.001 0.001c0.239-0.244 0.387-0.578 0.387-0.947s-0.148-0.703-0.387-0.947l0 0c-0.246-0.229-0.576-0.37-0.94-0.37s-0.694 0.141-0.941 0.371l0.001-0.001z"></path>
<path fill="var(--color-1)" d="M19.396 29.333l1.197-2.667h5.467l1.197 2.667zM23.327 20.583l1.531 3.417h-3.061zM30.667 29.333h-0.472l-5.645-12.547c-0.214-0.468-0.678-0.786-1.216-0.786s-1.002 0.319-1.213 0.778l-0.003 0.008-5.647 12.547h-0.471c-0.736 0-1.333 0.597-1.333 1.333s0.597 1.333 1.333 1.333v0h14.667c0.736 0 1.333-0.597 1.333-1.333s-0.597-1.333-1.333-1.333v0z"></path>
</symbol>
<symbol id="icon-ek--friendly" viewBox="0 0 32 32">
<title>ek--friendly</title>
<path fill="var(--color-1)" d="M11.638 10.105c0.93 0 1.684 0.754 1.684 1.684s-0.754 1.684-1.684 1.684v0c-0.93 0-1.684-0.754-1.684-1.684s0.754-1.684 1.684-1.684v0zM11.638 16.842c2.79 0 5.053-2.262 5.053-5.053s-2.262-5.053-5.053-5.053v0c-2.79 0-5.053 2.262-5.053 5.053s2.262 5.053 5.053 5.053v0z"></path>
<path fill="var(--color-1)" d="M23.427 6.737c0.93 0 1.684 0.754 1.684 1.684s-0.754 1.684-1.684 1.684v0c-0.93 0-1.684-0.754-1.684-1.684s0.754-1.684 1.684-1.684v0zM23.427 13.474c2.791 0 5.053-2.262 5.053-5.053s-2.262-5.053-5.053-5.053v0c-2.791 0-5.053 2.262-5.053 5.053s2.262 5.053 5.053 5.053v0z"></path>
<path fill="var(--color-1)" d="M15.006 28.632h-6.737c-0.93 0-1.684-0.754-1.684-1.684v0c0-2.791 2.262-5.053 5.053-5.053s5.053 2.262 5.053 5.053v0c0 0.93-0.754 1.684-1.684 1.684v0zM11.638 18.526c-4.649 0.006-8.415 3.773-8.421 8.421v0.001c0 2.791 2.262 5.053 5.053 5.053v0h6.737c2.79 0 5.053-2.262 5.053-5.053v0c-0.006-4.648-3.773-8.415-8.421-8.421h-0.001z"></path>
<path fill="var(--color-1)" d="M29.378 17.617c-1.539-1.491-3.64-2.409-5.956-2.409-1.788 0-3.449 0.548-4.822 1.485l0.030-0.019c-0.441 0.308-0.726 0.813-0.726 1.385 0 0.931 0.754 1.685 1.685 1.685 0.359 0 0.691-0.112 0.965-0.303l-0.005 0.004c0.806-0.57 1.808-0.91 2.89-0.91 2.785 0 5.043 2.258 5.043 5.043 0 0.003 0 0.005 0 0.008v-0c0 0.93-0.754 1.684-1.684 1.684v0h-3.368c-0.93 0-1.684 0.754-1.684 1.684s0.754 1.684 1.684 1.684v0h3.368c2.791 0 5.053-2.262 5.053-5.053v0c-0.001-2.329-0.945-4.438-2.471-5.966l0 0z"></path>
<path fill="var(--color-2)" d="M4.766 7.373c0.083-0.189 0.132-0.408 0.135-0.639v-0.001c-0.007-0.465-0.192-0.885-0.489-1.197l0.001 0.001c-0.304-0.3-0.722-0.485-1.183-0.485-0.236 0-0.46 0.048-0.664 0.136l0.011-0.004c-0.204 0.084-0.392 0.205-0.556 0.354-0.297 0.311-0.481 0.731-0.488 1.194l-0 0.001c0.003 0.232 0.052 0.451 0.139 0.651l-0.004-0.011c0.081 0.207 0.202 0.396 0.354 0.556 0.163 0.148 0.352 0.269 0.556 0.354 0.189 0.083 0.408 0.132 0.639 0.135h0.001c0.446-0.007 0.872-0.18 1.196-0.488 0.152-0.16 0.273-0.349 0.354-0.556z"></path>
<path fill="var(--color-2)" d="M5.389 4.563c0.163 0.148 0.352 0.268 0.556 0.354 0.189 0.083 0.408 0.132 0.639 0.135h0.001c0.446-0.007 0.872-0.182 1.196-0.488 0.152-0.162 0.273-0.35 0.354-0.556 0.085-0.188 0.135-0.408 0.135-0.64s-0.050-0.452-0.139-0.65l0.004 0.010c-0.091-0.214-0.21-0.398-0.355-0.557l0.001 0.002c-0.156-0.148-0.34-0.267-0.544-0.35l-0.012-0.004c-0.189-0.084-0.409-0.133-0.64-0.133s-0.451 0.049-0.65 0.137l0.010-0.004c-0.204 0.084-0.392 0.205-0.556 0.354-0.152 0.16-0.273 0.349-0.354 0.556-0.085 0.188-0.135 0.408-0.135 0.64s0.050 0.452 0.139 0.65l-0.004-0.010c0.081 0.205 0.202 0.394 0.354 0.556z"></path>
<path fill="var(--color-2)" d="M2.728 2.872c0.308-0.323 0.482-0.749 0.488-1.196-0.003-0.232-0.052-0.451-0.139-0.651l0.004 0.011c-0.091-0.214-0.21-0.398-0.355-0.557l0.001 0.002c-0.308-0.297-0.727-0.48-1.189-0.48-0.233 0-0.455 0.047-0.658 0.131l0.011-0.004c-0.424 0.157-0.753 0.485-0.906 0.899l-0.003 0.010c-0.085 0.177-0.135 0.384-0.135 0.604 0 0.013 0 0.026 0.001 0.038l-0-0.002c0.007 0.446 0.182 0.872 0.488 1.196 0.165 0.148 0.354 0.269 0.556 0.354 0.189 0.083 0.408 0.132 0.639 0.135h0.001c0.446-0.007 0.874-0.18 1.196-0.488z"></path>
</symbol>
<symbol id="icon-ek--league" viewBox="0 0 32 32">
<title>ek--league</title>
<path fill="var(--color-2)" d="M31.577 19.338c-0.264-0.265-0.628-0.429-1.031-0.429-0.803 0-1.455 0.651-1.455 1.455 0 0.002 0 0.005 0 0.007v-0c0.003 0.2 0.045 0.39 0.12 0.562l-0.004-0.009c0.073 0.176 0.177 0.339 0.305 0.48 0.266 0.261 0.631 0.422 1.033 0.422s0.767-0.161 1.033-0.422l-0 0c0.128-0.141 0.233-0.304 0.305-0.48 0.071-0.163 0.114-0.352 0.116-0.552v-0.001c-0.006-0.401-0.167-0.764-0.424-1.033l0.001 0.001z"></path>
<path fill="var(--color-2)" d="M2.486 19.324c-0.266-0.257-0.628-0.415-1.027-0.415-0.201 0-0.393 0.040-0.568 0.113l0.010-0.004c-0.366 0.135-0.65 0.419-0.783 0.776l-0.003 0.009c-0.071 0.163-0.113 0.353-0.115 0.552v0.001c0.006 0.385 0.156 0.753 0.422 1.033 0.14 0.131 0.303 0.236 0.48 0.305 0.163 0.071 0.353 0.114 0.552 0.116h0.001c0.385-0.003 0.756-0.154 1.033-0.422 0.266-0.279 0.416-0.647 0.422-1.033-0.002-0.2-0.045-0.39-0.12-0.562l0.004 0.009c-0.071-0.187-0.175-0.347-0.307-0.48l0 0z"></path>
<path fill="var(--color-2)" d="M24.609 22.72c-0.078-0.185-0.181-0.344-0.307-0.481l0.001 0.001-0.218-0.175c-0.075-0.052-0.162-0.096-0.254-0.129l-0.008-0.002c-0.076-0.040-0.164-0.070-0.256-0.086l-0.006-0.001c-0.48-0.096-0.975 0.051-1.324 0.393-0.128 0.141-0.233 0.303-0.305 0.48-0.071 0.163-0.113 0.353-0.115 0.552v0.001c0 0.803 0.651 1.455 1.455 1.455s1.455-0.651 1.455-1.455v0c-0.003-0.2-0.046-0.39-0.121-0.562l0.004 0.009z"></path>
<path fill="var(--color-2)" d="M16 5.818c-0.803 0-1.455 0.651-1.455 1.455v0 1.455c0 0.803 0.651 1.455 1.455 1.455s1.455-0.651 1.455-1.455v0-1.455c0-0.803-0.651-1.455-1.455-1.455v0z"></path>
<path fill="var(--color-2)" d="M8.175 21.937c-0.176 0.073-0.339 0.177-0.48 0.305-0.261 0.266-0.422 0.631-0.422 1.033s0.161 0.767 0.422 1.033l-0-0c0.141 0.128 0.304 0.233 0.48 0.305 0.173 0.081 0.364 0.122 0.554 0.116 0.002 0 0.005 0 0.008 0 0.803 0 1.455-0.651 1.455-1.455 0-0.404-0.165-0.769-0.43-1.033l-0-0c-0.269-0.254-0.633-0.41-1.034-0.41-0.199 0-0.388 0.038-0.562 0.108l0.010-0.004z"></path>
<path fill="var(--color-2)" d="M27.213 26.601c-0.271-0.25-0.634-0.404-1.033-0.404s-0.762 0.153-1.034 0.405l0.001-0.001c-0.128 0.141-0.233 0.303-0.305 0.48-0.071 0.163-0.113 0.353-0.115 0.552v0.001c0 0.803 0.651 1.455 1.455 1.455s1.455-0.651 1.455-1.455v0c-0.003-0.2-0.045-0.39-0.12-0.562l0.004 0.009c-0.079-0.185-0.182-0.344-0.308-0.481l0.001 0.001z"></path>
<path fill="var(--color-2)" d="M7.155 27.081c-0.035-0.1-0.079-0.186-0.133-0.266l0.002 0.004c-0.058-0.081-0.115-0.153-0.176-0.22l0.002 0.002c-0.263-0.259-0.623-0.419-1.022-0.419-0.204 0-0.397 0.042-0.573 0.117l0.009-0.004c-0.176 0.073-0.339 0.177-0.48 0.305-0.060 0.066-0.117 0.137-0.17 0.211l-0.005 0.007c-0.052 0.075-0.096 0.162-0.129 0.254l-0.002 0.008c-0.042 0.080-0.073 0.173-0.087 0.272l-0.001 0.005c-0.015 0.082-0.025 0.177-0.028 0.274l-0 0.002c0.006 0.385 0.156 0.753 0.422 1.033 0.141 0.128 0.304 0.233 0.48 0.305 0.167 0.074 0.363 0.117 0.568 0.117 0.795 0 1.44-0.645 1.44-1.44 0-0.103-0.011-0.204-0.031-0.301l0.002 0.009c-0.015-0.103-0.046-0.196-0.091-0.281l0.002 0.005z"></path>
<path fill="var(--color-1)" d="M24.321 7.273h1.785c-0.28 2.815-1.601 5.277-3.568 7.031l-0.011 0.009c0.793-2.030 1.419-4.403 1.771-6.865l0.020-0.175zM16.003 19.761c-1.655-1.875-5.040-6.691-5.702-15.244-0.004-0.039-0.006-0.083-0.006-0.129 0-0.394 0.152-0.752 0.401-1.020l-0.001 0.001c0.261-0.284 0.634-0.461 1.049-0.461 0.002 0 0.004 0 0.006 0h8.506c0.401 0 0.784 0.166 1.055 0.461 0.288 0.31 0.431 0.727 0.394 1.148-0.662 8.556-4.047 13.373-5.702 15.244zM7.684 7.273c0.335 2.406 0.938 4.768 1.795 7.041-1.976-1.764-3.298-4.226-3.575-6.996l-0.004-0.045zM29.095 5.818c0-0.803-0.651-1.455-1.455-1.455v0h-3.046c0-1.098-0.41-2.156-1.149-2.969-0.797-0.857-1.931-1.392-3.189-1.395h-8.507c-1.259 0.002-2.392 0.538-3.187 1.392l-0.002 0.003c-0.713 0.78-1.149 1.824-1.149 2.969v0h-3.044c-0.803 0-1.455 0.651-1.455 1.455v0c-0.002 0.094-0.004 0.205-0.004 0.316 0 5.607 3.321 10.439 8.103 12.636l0.086 0.036c0.173 0.068 0.356 0.103 0.541 0.103 0.036 0 0.070-0.013 0.106-0.016 0.831 1.348 1.757 2.516 2.803 3.564l-0-0v3.725c-0.803 0-1.455 0.651-1.455 1.455s0.651 1.455 1.455 1.455v0h-1.455c-0.803 0-1.455 0.651-1.455 1.455s0.651 1.455 1.455 1.455v0h5.818c0.803 0 1.455-0.651 1.455-1.455s-0.651-1.455-1.455-1.455v0h-1.455c0.803 0 1.455-0.651 1.455-1.455s-0.651-1.455-1.455-1.455v0-3.725c1.046-1.047 1.972-2.215 2.755-3.48l0.047-0.082c0.036 0 0.070 0.015 0.106 0.015 0.186 0 0.368-0.035 0.54-0.103 4.87-2.231 8.193-7.063 8.193-12.671 0-0.111-0.001-0.222-0.004-0.333l0 0.016z"></path>
</symbol>
<symbol id="icon-ek--lineup" viewBox="0 0 32 32">
<title>ek--lineup</title>
<path fill="var(--color-2)" d="M26 28c-1.841 0-3.333-1.492-3.333-3.333s1.492-3.333 3.333-3.333v0c1.841 0 3.333 1.492 3.333 3.333s-1.492 3.333-3.333 3.333v0zM26 18.667c-3.314 0-6 2.686-6 6s2.686 6 6 6v0c3.314 0 6-2.686 6-6s-2.686-6-6-6v0z"></path>
<path fill="var(--color-2)" d="M9.727 12.947c0.241 0.241 0.575 0.391 0.943 0.391 0.737 0 1.335-0.598 1.335-1.335 0-0.369-0.149-0.702-0.391-0.944l-3.725-3.723 3.725-3.723c0.241-0.241 0.391-0.575 0.391-0.943 0-0.737-0.597-1.334-1.334-1.334-0.368 0-0.702 0.149-0.943 0.391v0l-3.724 3.724-3.723-3.724c-0.241-0.241-0.575-0.391-0.943-0.391-0.737 0-1.334 0.597-1.334 1.334 0 0.368 0.149 0.702 0.391 0.943l3.724 3.724-3.724 3.723c-0.241 0.241-0.391 0.575-0.391 0.943 0 0.737 0.597 1.334 1.334 1.334 0.368 0 0.702-0.149 0.943-0.391v0l3.724-3.724z"></path>
<path fill="var(--color-1)" d="M24.781 10.667l-1.724 1.724c-0.232 0.24-0.374 0.566-0.374 0.926 0 0.736 0.597 1.333 1.333 1.333 0.36 0 0.687-0.143 0.927-0.375l4-4c0.223-0.22 0.367-0.518 0.39-0.849l0-0.004c0.002-0.025 0.003-0.055 0.003-0.085 0-0.372-0.152-0.708-0.397-0.949l-4-4c-0.24-0.232-0.566-0.374-0.926-0.374-0.736 0-1.333 0.597-1.333 1.333 0 0.36 0.143 0.687 0.375 0.927l1.728 1.726h-2.115c-4.416 0.005-7.995 3.584-8 8v0c0 2.946-2.388 5.333-5.333 5.333v0h-5.333c-0.736 0-1.333 0.597-1.333 1.333s0.597 1.333 1.333 1.333v0h5.333c4.416-0.005 7.995-3.584 8-7.999v-0.001c0-2.946 2.388-5.333 5.333-5.333v0z"></path>
</symbol>
<symbol id="icon-ek--marketing" viewBox="0 0 27 32">
<title>ek--marketing</title>
<path fill="var(--color-2)" d="M13.333 28c-0.736 0-1.333 0.597-1.333 1.333v0 1.333c0 0.736 0.597 1.333 1.333 1.333s1.333-0.597 1.333-1.333v0-1.333c0-0.736-0.597-1.333-1.333-1.333v0z"></path>
<path fill="var(--color-2)" d="M17.333 26.667c-0.736 0-1.333 0.597-1.333 1.333v0 1.333c0 0.736 0.597 1.333 1.333 1.333s1.333-0.597 1.333-1.333v0-1.333c0-0.736-0.597-1.333-1.333-1.333v0z"></path>
<path fill="var(--color-2)" d="M9.333 26.667c-0.736 0-1.333 0.597-1.333 1.333v0 1.333c0 0.736 0.597 1.333 1.333 1.333s1.333-0.597 1.333-1.333v0-1.333c0-0.736-0.597-1.333-1.333-1.333v0z"></path>
<path fill="var(--color-1)" d="M21.288 20.076c-0.036-1.116-0.105-2.148-0.208-3.171l0.016 0.192c1.117 0.911 1.985 2.086 2.514 3.431l0.020 0.057c-0.67-0.221-1.463-0.399-2.279-0.5l-0.063-0.006zM15.619 22.156c-0.219 0.287-0.551 0.478-0.929 0.506l-0.004 0h-2.701c-0.382-0.027-0.715-0.218-0.931-0.503l-0.002-0.003c-0.779-0.924-1.817-1.607-3.003-1.937l-0.042-0.010c0.167-9.911 3.676-15.093 5.319-16.98 1.6 1.887 5 7.021 5.32 16.985-1.22 0.341-2.252 1.023-3.018 1.935l-0.008 0.009zM5.52 17.007v-0.003zM5.359 20.093c-0.881 0.109-1.675 0.29-2.437 0.54l0.090-0.026c0.522-1.445 1.384-2.66 2.494-3.589l0.013-0.011c-0.085 0.896-0.142 1.968-0.16 3.051l-0 0.034zM20.597 13.537c-1.779-9.333-6.191-13.049-6.421-13.237-0.228-0.187-0.522-0.3-0.842-0.3-0.312 0-0.6 0.107-0.827 0.287l0.003-0.002c-0.24 0.187-4.792 3.896-6.517 13.18-0.017 0.008-0.036 0-0.053 0.013-0.244 0.127-5.939 3.111-5.939 9.264 0 0.736 0.597 1.333 1.333 1.333 0.237 0 0.46-0.062 0.653-0.171l-0.007 0.003c1.302-0.697 2.834-1.146 4.461-1.241l0.030-0.001h0.196c0.941 0.074 1.764 0.522 2.33 1.195l0.004 0.005c0.708 0.88 1.776 1.444 2.978 1.467l0.004 0h2.701c1.205-0.023 2.274-0.587 2.977-1.459l0.006-0.008c0.573-0.68 1.401-1.129 2.335-1.199l0.011-0.001h0.023c1.711 0.047 3.306 0.5 4.705 1.267l-0.054-0.027c0.186 0.105 0.409 0.167 0.647 0.167 0.736 0 1.333-0.597 1.333-1.333v-0c0-5.747-5.16-8.721-6.069-9.201z"></path>
<path fill="var(--color-2)" d="M13.333 16c1.473 0 2.667-1.194 2.667-2.667s-1.194-2.667-2.667-2.667v0c-1.473 0-2.667 1.194-2.667 2.667s1.194 2.667 2.667 2.667v0z"></path>
</symbol>
<symbol id="icon-ek--overwiev" viewBox="0 0 32 32">
<title>ek--overwiev</title>
<path fill="var(--color-1)" d="M30.551 14.543c-0.001 0-0.001 0-0.002 0-0.311 0-0.599-0.098-0.834-0.265l0.005 0.003-12.877-9.018c-0.232-0.165-0.522-0.263-0.834-0.263s-0.602 0.098-0.839 0.266l0.005-0.003-12.879 9.018c-0.232 0.164-0.521 0.262-0.833 0.262-0.804 0-1.455-0.651-1.455-1.455 0-0.492 0.244-0.926 0.617-1.19l0.005-0.003 12.877-9.015c0.698-0.491 1.566-0.784 2.502-0.784s1.804 0.293 2.516 0.793l-0.014-0.009 12.877 9.018c0.378 0.266 0.622 0.701 0.622 1.193 0 0.803-0.651 1.455-1.455 1.455-0.001 0-0.002 0-0.003 0h0z"></path>
<path fill="var(--color-2)" d="M24.727 30.545h-17.455c-2.41 0-4.364-1.954-4.364-4.364v0-7.273c0-0.803 0.651-1.455 1.455-1.455s1.455 0.651 1.455 1.455v0 7.273c0 0.803 0.651 1.455 1.455 1.455v0h17.455c0.803 0 1.455-0.651 1.455-1.455v0-7.273c0-0.803 0.651-1.455 1.455-1.455s1.455 0.651 1.455 1.455v0 7.273c0 2.41-1.954 4.364-4.364 4.364v0z"></path>
</symbol>
<symbol id="icon-ek--settings" viewBox="0 0 32 32">
<title>ek--settings</title>
<path fill="var(--color-2)" d="M16 19.2c-1.767 0-3.2-1.433-3.2-3.2s1.433-3.2 3.2-3.2v0c1.767 0 3.2 1.433 3.2 3.2s-1.433 3.2-3.2 3.2v0zM16 9.6c-3.535 0-6.4 2.865-6.4 6.4s2.865 6.4 6.4 6.4v0c3.535 0 6.4-2.865 6.4-6.4s-2.865-6.4-6.4-6.4v0z"></path>
<path fill="var(--color-1)" d="M26.784 19.138c0.26 0.442 0.414 0.974 0.414 1.542 0 1.702-1.379 3.081-3.081 3.082h-0c-2.312 0.004-4.331 1.253-5.424 3.111l-0.016 0.030c-0.542 0.929-1.534 1.543-2.669 1.543s-2.127-0.614-2.661-1.528l-0.008-0.015c-1.109-1.888-3.128-3.137-5.439-3.141h-0.001c-0 0-0.001 0-0.001 0-1.702 0-3.082-1.38-3.082-3.082 0-0.568 0.154-1.1 0.422-1.557l-0.008 0.015c0.527-0.901 0.839-1.985 0.839-3.141s-0.311-2.239-0.855-3.171l0.016 0.030c-0.26-0.442-0.414-0.974-0.414-1.542 0-1.702 1.38-3.082 3.082-3.082 0 0 0.001 0 0.001 0h-0c2.312-0.004 4.331-1.253 5.424-3.111l0.016-0.030c0.542-0.929 1.534-1.542 2.669-1.542s2.127 0.614 2.661 1.528l0.008 0.015c1.109 1.888 3.128 3.137 5.439 3.141h0.001c0 0 0.001 0 0.001 0 1.702 0 3.082 1.38 3.082 3.082 0 0.568-0.154 1.1-0.422 1.557l0.008-0.014c-0.527 0.901-0.839 1.985-0.839 3.141s0.311 2.239 0.855 3.171l-0.016-0.030zM29.557 14.456c0.53-0.901 0.843-1.985 0.843-3.142 0-3.469-2.812-6.282-6.282-6.282-0 0-0.001 0-0.001 0h0c-1.134-0.002-2.125-0.614-2.661-1.526l-0.008-0.014c-1.107-1.89-3.128-3.139-5.44-3.139s-4.333 1.249-5.424 3.11l-0.016 0.030c-0.552 0.952-1.568 1.539-2.669 1.541-0 0-0.001 0-0.001 0-3.469 0-6.282 2.812-6.282 6.282 0 1.157 0.313 2.241 0.859 3.172l-0.016-0.030c0.55 0.954 0.55 2.128 0 3.082-0.53 0.901-0.843 1.985-0.843 3.142 0 3.469 2.812 6.282 6.282 6.282 0 0 0.001 0 0.001 0h-0c1.134 0.002 2.125 0.614 2.661 1.526l0.008 0.015c1.107 1.89 3.128 3.139 5.44 3.139s4.333-1.249 5.424-3.11l0.016-0.030c0.55-0.952 1.568-1.539 2.669-1.541 0 0 0.001 0 0.001 0 3.469 0 6.282-2.812 6.282-6.282 0-1.157-0.313-2.241-0.859-3.172l0.016 0.030c-0.26-0.442-0.413-0.974-0.413-1.541s0.153-1.099 0.421-1.555l-0.008 0.015z"></path>
</symbol>
<symbol id="icon-ek--squad" viewBox="0 0 32 32">
<title>ek--squad</title>
<path fill="var(--color-1)" d="M16 10c0.736 0 1.333 0.597 1.333 1.333s-0.597 1.333-1.333 1.333v0c-0.736 0-1.333-0.597-1.333-1.333s0.597-1.333 1.333-1.333v0zM16 15.333c2.209 0 4-1.791 4-4s-1.791-4-4-4v0c-2.209 0-4 1.791-4 4s1.791 4 4 4v0z"></path>
<path fill="var(--color-2)" d="M25.333 7.333c0.736 0 1.333 0.597 1.333 1.333s-0.597 1.333-1.333 1.333v0c-0.736 0-1.333-0.597-1.333-1.333s0.597-1.333 1.333-1.333v0zM25.333 12.667c2.209 0 4-1.791 4-4s-1.791-4-4-4v0c-2.209 0-4 1.791-4 4s1.791 4 4 4v0z"></path>
<path fill="var(--color-2)" d="M27.32 14.305c-0.594-0.194-1.278-0.305-1.988-0.305-1.422 0-2.74 0.448-3.82 1.211l0.021-0.014c-0.364 0.242-0.601 0.65-0.601 1.114 0 0.736 0.597 1.333 1.333 1.333 0.295 0 0.567-0.096 0.788-0.258l-0.004 0.003c0.636-0.448 1.427-0.717 2.281-0.717 0.427 0 0.838 0.067 1.224 0.191l-0.028-0.008c1.649 0.592 2.808 2.143 2.808 3.963 0 0.031-0 0.062-0.001 0.093l0-0.005c-0.002 0.603-0.49 1.091-1.093 1.092h-2.907c-0.736 0-1.333 0.597-1.333 1.333s0.597 1.333 1.333 1.333v0h2.907c2.075-0.002 3.757-1.684 3.76-3.758v-0c0-0.023 0-0.051 0-0.078 0-3.014-1.935-5.575-4.631-6.51l-0.048-0.015z"></path>
<path fill="var(--color-2)" d="M6.667 7.333c0.736 0 1.333 0.597 1.333 1.333s-0.597 1.333-1.333 1.333v0c-0.736 0-1.333-0.597-1.333-1.333s0.597-1.333 1.333-1.333v0zM6.667 12.667c2.209 0 4-1.791 4-4s-1.791-4-4-4v0c-2.209 0-4 1.791-4 4s1.791 4 4 4v0z"></path>
<path fill="var(--color-2)" d="M5.467 16.847c0.357-0.116 0.767-0.182 1.193-0.182 0.854 0 1.646 0.268 2.296 0.724l-0.013-0.009c0.223 0.175 0.508 0.28 0.818 0.28 0.736 0 1.333-0.597 1.333-1.333 0-0.475-0.248-0.892-0.622-1.128l-0.005-0.003c-1.060-0.748-2.378-1.196-3.801-1.196-0.709 0-1.392 0.111-2.032 0.317l0.047-0.013c-2.745 0.949-4.68 3.511-4.68 6.525 0 0.026 0 0.053 0 0.079l-0-0.004c0.003 2.075 1.685 3.756 3.76 3.759h2.907c0.736 0 1.333-0.597 1.333-1.333s-0.597-1.333-1.333-1.333v0h-2.907c-0.603 0-1.093-0.489-1.093-1.092v-0c-0.001-0.029-0.001-0.062-0.001-0.096 0-1.818 1.155-3.367 2.772-3.952l0.029-0.009z"></path>
<path fill="var(--color-1)" d="M18.667 24.667h-5.333c-0.736 0-1.333-0.597-1.333-1.333v0c0-2.209 1.791-4 4-4s4 1.791 4 4v0c0 0.736-0.597 1.333-1.333 1.333v0zM16 16.667c-3.68 0.005-6.662 2.987-6.667 6.666v0c0 2.209 1.791 4 4 4v0h5.333c2.209 0 4-1.791 4-4v0c-0.005-3.68-2.987-6.662-6.666-6.667h-0z"></path>
</symbol>
<symbol id="icon-ek--statistics" viewBox="0 0 32 32">
<title>ek--statistics</title>
<path fill="var(--color-2)" d="M27.633 31.996c-0.803-0-1.454-0.651-1.454-1.455 0-0.402 0.163-0.765 0.426-1.028l0.426-0.426h-19.761c-2.41 0-4.364-1.954-4.364-4.364v0-19.763l-0.426 0.426c-0.261 0.253-0.618 0.409-1.011 0.409-0.803 0-1.455-0.651-1.455-1.455 0-0.392 0.155-0.749 0.408-1.010l-0 0 2.903-2.902c0.025-0.026 0.052-0.051 0.080-0.076 0.209-0.184 0.475-0.309 0.768-0.345l0.007-0.001c0.041-0.004 0.088-0.007 0.136-0.007s0.095 0.002 0.142 0.007l-0.006-0c0.364 0.025 0.688 0.181 0.928 0.42l2.909 2.909c0.253 0.261 0.408 0.618 0.408 1.010 0 0.803-0.651 1.455-1.455 1.455-0.393 0-0.749-0.156-1.011-0.409l0 0-0.417-0.432v19.761c0 0.803 0.651 1.455 1.455 1.455v0h19.761l-0.426-0.426c-0.253-0.261-0.408-0.618-0.408-1.011 0-0.803 0.651-1.455 1.455-1.455 0.393 0 0.749 0.156 1.011 0.409l2.901 2.901 0.076 0.080c0.183 0.209 0.307 0.473 0.345 0.764l0.001 0.007c0.007 0.055 0.011 0.118 0.011 0.182 0 0.395-0.157 0.753-0.413 1.015l0-0-2.909 2.909c-0.264 0.272-0.633 0.441-1.041 0.442h-0z"></path>
<path fill="var(--color-1)" d="M11.636 21.824c-0.803 0-1.455-0.651-1.455-1.455s0.651-1.455 1.455-1.455v0c7.19 0 7.273-6.982 7.273-7.273-0.004-0.095-0.006-0.207-0.006-0.319 0-4.647 3.767-8.415 8.415-8.415 0.112 0 0.224 0.002 0.335 0.007l-0.016-0.001c0.803 0 1.455 0.651 1.455 1.455s-0.651 1.455-1.455 1.455v0c-0.066-0.003-0.144-0.004-0.223-0.004-3.093 0-5.6 2.507-5.6 5.6 0 0.078 0.002 0.156 0.005 0.234l-0-0.011c0 3.521-2.128 10.182-10.182 10.182z"></path>
</symbol>
<symbol id="icon-ek--transfer" viewBox="0 0 32 32">
<title>ek--transfer</title>
<path fill="var(--color-2)" d="M8 11.2c0.884 0 1.6 0.716 1.6 1.6s-0.716 1.6-1.6 1.6v0c-0.884 0-1.6-0.716-1.6-1.6s0.716-1.6 1.6-1.6v0zM8 17.6c2.651 0 4.8-2.149 4.8-4.8s-2.149-4.8-4.8-4.8v0c-2.651 0-4.8 2.149-4.8 4.8s2.149 4.8 4.8 4.8v0z"></path>
<path fill="var(--color-2)" d="M11.2 28.8h-6.4c-0.884 0-1.6-0.716-1.6-1.6v0c0-2.651 2.149-4.8 4.8-4.8s4.8 2.149 4.8 4.8v0c0 0.884-0.716 1.6-1.6 1.6v0zM8 19.2c-4.416 0.005-7.995 3.584-8 7.999v0.001c0 2.651 2.149 4.8 4.8 4.8v0h6.4c2.651 0 4.8-2.149 4.8-4.8v0c-0.005-4.416-3.584-7.995-7.999-8h-0.001z"></path>
<path fill="var(--color-1)" d="M31.877 5.408c0.077-0.181 0.122-0.391 0.122-0.612 0-0.442-0.179-0.842-0.469-1.132l-3.2-3.2c-0.29-0.289-0.689-0.468-1.131-0.468-0.884 0-1.6 0.717-1.6 1.6 0 0.442 0.179 0.842 0.469 1.132l0.469 0.469h-7.336c-0.884 0-1.6 0.716-1.6 1.6s0.716 1.6 1.6 1.6v0h7.338l-0.469 0.469c-0.301 0.291-0.488 0.699-0.488 1.151 0 0.884 0.716 1.6 1.6 1.6 0.452 0 0.86-0.187 1.15-0.488l3.2-3.2c0.144-0.145 0.261-0.317 0.342-0.508l0.004-0.011z"></path>
<path fill="var(--color-1)" d="M28.798 11.203h-7.338l0.469-0.469c0.301-0.291 0.488-0.699 0.488-1.151 0-0.884-0.716-1.6-1.6-1.6-0.452 0-0.86 0.187-1.15 0.488l-3.2 3.2c-0.29 0.29-0.47 0.69-0.47 1.133s0.18 0.843 0.47 1.133l3.2 3.2c0.287 0.278 0.68 0.449 1.112 0.449 0.884 0 1.6-0.716 1.6-1.6 0-0.432-0.171-0.824-0.45-1.112l0 0-0.469-0.472h7.338c0.884 0 1.6-0.716 1.6-1.6s-0.716-1.6-1.6-1.6v0z"></path>
</symbol>
<symbol id="icon-ek--correct" viewBox="0 0 32 32">
<title>ek--correct</title>
<path d="M16 29.091c-7.23 0-13.091-5.861-13.091-13.091s5.861-13.091 13.091-13.091c7.23 0 13.091 5.861 13.091 13.091v0c-0.008 7.227-5.864 13.083-13.090 13.091h-0.001zM0 16c0 8.836 7.164 16 16 16s16-7.164 16-16c-0.010-8.832-7.168-15.99-16-16-8.836 0-16 7.164-16 16z"></path>
<path d="M22.24 12.058l-7.697 7.7-4.79-4.79c-0.261-0.253-0.618-0.408-1.011-0.408-0.803 0-1.455 0.651-1.455 1.455 0 0.393 0.156 0.749 0.409 1.011l5.818 5.818c0.263 0.263 0.627 0.426 1.028 0.426s0.765-0.163 1.028-0.426l8.727-8.727c0.263-0.263 0.426-0.627 0.426-1.029 0-0.804-0.652-1.455-1.455-1.455-0.402 0-0.766 0.163-1.029 0.426v0z"></path>
</symbol>
<symbol id="icon-ek--info" viewBox="0 0 32 32">
<title>ek--info</title>
<path d="M16 29.091c-7.23 0-13.091-5.861-13.091-13.091s5.861-13.091 13.091-13.091c7.23 0 13.091 5.861 13.091 13.091v0c-0.008 7.227-5.864 13.083-13.090 13.091h-0.001zM0 16c0 8.836 7.164 16 16 16s16-7.164 16-16c-0.010-8.832-7.168-15.99-16-16-8.836 0-16 7.164-16 16z"></path>
<path d="M16 13.091c-0.803 0-1.455 0.651-1.455 1.455v0 8.727c0 0.803 0.651 1.455 1.455 1.455s1.455-0.651 1.455-1.455v0-8.727c0-0.803-0.651-1.455-1.455-1.455v0z"></path>
<path d="M14.966 9.759c0.141 0.128 0.304 0.231 0.48 0.305 0.163 0.074 0.353 0.116 0.553 0.116s0.39-0.043 0.561-0.12l-0.009 0.003c0.187-0.071 0.347-0.175 0.48-0.306l-0 0c0.131-0.14 0.236-0.303 0.305-0.48 0.072-0.163 0.115-0.352 0.118-0.552v-0.001c-0.003-0.105-0.013-0.205-0.031-0.303l0.002 0.012c-0.017-0.098-0.048-0.186-0.090-0.267l0.002 0.005c-0.035-0.1-0.079-0.186-0.133-0.266l0.002 0.004c-0.058-0.081-0.115-0.153-0.176-0.22l0.002 0.002c-0.133-0.131-0.293-0.235-0.471-0.302l-0.009-0.003c-0.163-0.072-0.353-0.115-0.553-0.115s-0.39 0.042-0.562 0.118l0.009-0.003c-0.176 0.073-0.339 0.177-0.48 0.305l-0.175 0.218c-0.052 0.075-0.096 0.162-0.129 0.254l-0.002 0.008c-0.040 0.076-0.070 0.164-0.086 0.256l-0.001 0.006c-0.016 0.086-0.026 0.186-0.029 0.288l-0 0.003c0.002 0.2 0.045 0.39 0.12 0.562l-0.004-0.009c0.070 0.177 0.173 0.34 0.304 0.48z"></path>
</symbol>
<symbol id="icon-ek--warning" viewBox="0 0 32 32">
<title>ek--warning</title>
<path d="M16 29.091c-7.23 0-13.091-5.861-13.091-13.091s5.861-13.091 13.091-13.091c7.23 0 13.091 5.861 13.091 13.091v0c-0.008 7.227-5.864 13.083-13.090 13.091h-0.001zM0 16c0 8.836 7.164 16 16 16s16-7.164 16-16c-0.010-8.832-7.168-15.99-16-16-8.836 0-16 7.164-16 16z"></path>
<path d="M16 18.909c-0.803 0-1.455-0.651-1.455-1.455v0-8.727c0-0.803 0.651-1.455 1.455-1.455s1.455 0.651 1.455 1.455v0 8.727c0 0.803-0.651 1.455-1.455 1.455v0z"></path>
<path d="M17.034 22.24c0.131 0.14 0.234 0.303 0.304 0.48 0.071 0.163 0.114 0.352 0.116 0.552v0.001c-0.003 0.105-0.013 0.205-0.031 0.303l0.002-0.012c-0.017 0.098-0.048 0.186-0.090 0.267l0.002-0.005c-0.035 0.1-0.079 0.186-0.133 0.266l0.002-0.004-0.175 0.218c-0.141 0.128-0.304 0.233-0.48 0.305-0.163 0.072-0.353 0.115-0.553 0.115s-0.39-0.042-0.562-0.118l0.009 0.003c-0.187-0.071-0.347-0.175-0.48-0.306l0 0c-0.060-0.066-0.117-0.137-0.17-0.211l-0.005-0.007c-0.052-0.075-0.096-0.162-0.129-0.254l-0.002-0.008c-0.040-0.076-0.070-0.164-0.086-0.256l-0.001-0.006c-0.016-0.086-0.026-0.186-0.029-0.288l-0-0.003c0.003-0.2 0.046-0.39 0.121-0.562l-0.004 0.009c0.070-0.177 0.175-0.34 0.305-0.48 0.133-0.131 0.293-0.235 0.471-0.302l0.009-0.003c0.163-0.074 0.353-0.116 0.553-0.116s0.39 0.043 0.561 0.12l-0.009-0.003c0.176 0.073 0.339 0.177 0.48 0.305z"></path>
</symbol>
</defs>
</svg>
