<svg xmlns="http://www.w3.org/2000/svg" width="24" height="24" viewBox="0 0 24 24">
  <g id="Group_1556" data-name="Group 1556" transform="translate(-231 -116)">
    <rect id="Rectangle_1147" data-name="Rectangle 1147" width="24" height="24" transform="translate(231 116)" fill="none"/>
    <rect id="Rectangle_1148" data-name="Rectangle 1148" width="14" height="20" rx="2" transform="translate(253 121) rotate(90)" fill="#f03d3e"/>
  </g>
</svg>
